hour,game,score,odd1,odd2
,,,,
,,,,
,,,,
03:00,Portland Trail Blazers - San Antonio Spurs,99:98,5.56,1.17
01:00,Chicago Bulls - Orlando Magic,122:75,1.26,4.14
01:00,Detroit Pistons - Washington Wizards,101:105,1.46,2.84
01:00,Milwaukee Bucks - Charlotte Hornets,89:79,1.37,3.25
00:30,Boston Celtics - Brooklyn Nets,114:105,1.14,6.19
00:30,Miami Heat - Cleveland Cavaliers,124:121 OT,1.16,5.63
00:00,Philadelphia 76ers - Indiana Pacers,111:120,4.57,1.22
,,,,
,,,,
02:30,Los Angeles Lakers - Minnesota Timberwolves,110:109,2.88,1.44
,,,,
,,,,
23:00,Memphis Grizzlies - Detroit Pistons,90:103,1.44,2.89
23:00,Phoenix Suns - Dallas Mavericks,124:111,1.72,2.19
23:00,Sacramento Kings - Houston Rockets,128:135,4.97,1.20
22:00,Denver Nuggets - Oklahoma City Thunder,105:106,1.50,2.70
20:30,Atlanta Hawks - Cleveland Cavaliers,126:125 OT,2.76,1.48
17:00,New York Knicks - Toronto Raptors,97:110,4.85,1.20
03:30,Golden State Warriors - New Orleans Pelicans,123:101,1.02,17.70
03:00,Portland Trail Blazers - Utah Jazz,101:86,1.72,2.19
01:30,San Antonio Spurs - Los Angeles Clippers,87:98,1.81,2.05
00:00,Philadelphia 76ers - Milwaukee Bucks,82:90,3.41,1.34
00:00,Washington Wizards - Miami Heat,103:106,1.59,2.45
,,,,
,,,,
23:00,Charlotte Hornets - Boston Celtics,114:121,1.87,1.97
23:00,Orlando Magic - Indiana Pacers,112:127,2.62,1.53
22:00,Brooklyn Nets - Chicago Bulls,107:106,2.49,1.58
03:30,Los Angeles Lakers - Sacramento Kings,98:94,1.77,2.11
03:00,Phoenix Suns - Oklahoma City Thunder,120:99,4.89,1.20
02:00,Denver Nuggets - New Orleans Pelicans,122:106,1.33,3.49
02:00,Utah Jazz - Minnesota Timberwolves,120:113,1.13,6.49
01:30,Dallas Mavericks - San Antonio Spurs,89:102,1.47,2.78
01:00,Houston Rockets - Detroit Pistons,109:114,1.13,6.58
01:00,Memphis Grizzlies - New York Knicks,101:88,1.08,9.06
00:30,Cleveland Cavaliers - Atlanta Hawks,100:114,1.05,12.14
00:30,Toronto Raptors - Miami Heat,96:94,1.52,2.62
,,,,
,,,,
03:30,Portland Trail Blazers - Minnesota Timberwolves,105:98,1.45,2.87
01:00,Atlanta Hawks - Boston Celtics,123:116,1.97,1.89
00:30,New York Knicks - Washington Wizards,103:106,3.15,1.39
00:00,Indiana Pacers - Milwaukee Bucks,104:89,1.50,2.71
00:00,Orlando Magic - Brooklyn Nets,115:107,1.85,2.01
00:00,Philadelphia 76ers - Chicago Bulls,90:102,2.86,1.45
,,,,
,,,,
03:30,Los Angeles Clippers - Dallas Mavericks,112:101,1.13,6.60
03:00,Phoenix Suns - Golden State Warriors,111:120,4.64,1.22
01:30,San Antonio Spurs - Los Angeles Lakers,95:102,1.06,10.85
01:00,Boston Celtics - Cleveland Cavaliers,91:114,1.56,2.51
01:00,Houston Rockets - Denver Nuggets,110:104,1.28,3.87
01:00,Memphis Grizzlies - Oklahoma City Thunder,100:103,2.20,1.71
00:30,Detroit Pistons - Toronto Raptors,102:105,2.16,1.74
00:00,Charlotte Hornets - Miami Heat,99:112,1.68,2.27
,,,,
,,,,
03:30,Golden State Warriors - Minnesota Timberwolves,121:107,1.06,11.01
03:30,Sacramento Kings - Dallas Mavericks,98:87,2.22,1.70
02:00,Utah Jazz - Portland Trail Blazers,106:87,1.41,3.03
01:30,San Antonio Spurs - Memphis Grizzlies,95:89 OT,1.22,4.58
01:00,Oklahoma City Thunder - Milwaukee Bucks,110:79,1.42,2.97
,,,,
,,,,
,,,,
,,,,
,,,,
,,,,
,,,,
,,,,
,,,,
,,,,
,,,,
,,,,
,,,,
,,,,
,,,,
,,,,
,,,,
,,,,
,,,,
,,,,
01:00,New Orleans Pelicans - Denver Nuggets,131:134,1.63,2.35
01:00,New York Knicks - Chicago Bulls,100:91,2.63,1.52
00:00,Cleveland Cavaliers - Orlando Magic,122:102,1.13,6.34
00:00,Indiana Pacers - Toronto Raptors,108:90,1.67,2.28
00:00,Philadelphia 76ers - Brooklyn Nets,118:141,2.08,1.79
00:00,Washington Wizards - Charlotte Hornets,118:111,1.65,2.31
,,,,
,,,,
00:00,Minnesota Timberwolves - Portland Trail Blazers,110:109,1.77,2.11
,,,,
,,,,
02:00,Phoenix Suns - Houston Rockets,116:123,3.69,1.30
01:00,Golden State Warriors - Washington Wizards,139:115,1.19,5.16
,,,,
,,,,
23:00,Brooklyn Nets - Atlanta Hawks,91:82,2.33,1.64
23:00,Cleveland Cavaliers - Indiana Pacers,135:130 OT,1.25,4.16
23:00,Miami Heat - Denver Nuggets,113:116,1.60,2.42
23:00,New Orleans Pelicans - Chicago Bulls,110:117,1.26,4.07
23:00,Toronto Raptors - Philadelphia 76ers,113:105,1.11,7.10
20:30,Los Angeles Lakers - Memphis Grizzlies,108:103,3.63,1.31
20:30,Milwaukee Bucks - Dallas Mavericks,105:109,1.37,3.24
20:30,San Antonio Spurs - Utah Jazz,109:103,1.44,2.92
20:00,Oklahoma City Thunder - Charlotte Hornets,101:113,1.49,2.74
18:00,New York Knicks - Boston Celtics,94:110,3.85,1.29
03:00,Portland Trail Blazers - Phoenix Suns,130:117,1.14,6.19
01:00,Minnesota Timberwolves - Sacramento Kings,117:123,1.12,7.09
,,,,
,,,,
23:00,Brooklyn Nets - Orlando Magic,121:111,1.58,2.47
22:00,Chicago Bulls - Atlanta Hawks,106:104,1.45,2.87
20:30,Los Angeles Clippers - Los Angeles Lakers,115:104,1.04,13.25
03:30,Golden State Warriors - Houston Rockets,107:98,1.23,4.49
02:00,Utah Jazz - Washington Wizards,95:88,1.70,2.24
01:00,Memphis Grizzlies - Dallas Mavericks,99:90,1.63,2.35
01:00,Miami Heat - New York Knicks,94:98,1.15,5.92
01:00,Milwaukee Bucks - Detroit Pistons,108:105 OT,1.31,3.67
01:00,New Orleans Pelicans - Sacramento Kings,117:89,1.12,6.75
01:00,Oklahoma City Thunder - San Antonio Spurs,95:100,2.30,1.66
00:30,Boston Celtics - Orlando Magic,117:116,1.16,5.69
00:30,Cleveland Cavaliers - Philadelphia 76ers,122:105,1.10,8.08
00:00,Charlotte Hornets - Denver Nuggets,122:114,1.72,2.19
00:00,Toronto Raptors - Indiana Pacers,111:100,1.42,2.98
,,,,
,,,,
03:30,Portland Trail Blazers - Houston Rockets,117:107,1.90,1.96
03:00,Phoenix Suns - Los Angeles Clippers,118:124,5.29,1.18
01:00,Chicago Bulls - Cleveland Cavaliers,99:93,2.93,1.44
01:00,Minnesota Timberwolves - Los Angeles Lakers,119:104,1.13,6.58
00:30,Detroit Pistons - Brooklyn Nets,90:89,1.36,3.30
,,,,
,,,,
03:30,Los Angeles Clippers - Washington Wizards,133:124,1.37,3.24
03:30,Sacramento Kings - Utah Jazz,82:112,3.83,1.29
02:30,San Antonio Spurs - Golden State Warriors,98:110,1.52,2.64
01:00,Memphis Grizzlies - Indiana Pacers,110:97,1.54,2.59
01:00,New Orleans Pelicans - Dallas Mavericks,121:118,1.40,3.11
00:30,Boston Celtics - Milwaukee Bucks,100:103,1.30,3.72
00:30,New York Knicks - Miami Heat,88:105,2.23,1.70
00:30,Toronto Raptors - Charlotte Hornets,106:110,1.42,2.98
00:00,Orlando Magic - Oklahoma City Thunder,106:114 OT,2.82,1.47
00:00,Philadelphia 76ers - Atlanta Hawks,92:99,2.26,1.68
,,,,
,,,,
,,,,
,,,,
,,,,
,,,,
,,,,
,,,,
,,,,
,,,,
,,,,
,,,,
,,,,
,,,,
,,,,
,,,,
,,,,
,,,,
,,,,
,,,,
03:30,Los Angeles Lakers - Washington Wizards,108:119,4.78,1.20
03:00,Portland Trail Blazers - Denver Nuggets,122:113,1.76,2.13
01:00,Houston Rockets - Golden State Warriors,106:113,1.84,2.02
00:30,Atlanta Hawks - Phoenix Suns,95:91,1.17,5.41
00:30,Brooklyn Nets - Philadelphia 76ers,101:106,1.54,2.58
00:30,Detroit Pistons - Miami Heat,96:97,2.32,1.65
00:00,Charlotte Hornets - Milwaukee Bucks,108:118,1.55,2.56
00:00,Indiana Pacers - Minnesota Timberwolves,114:115,1.56,2.54
,,,,
,,,,
03:30,Sacramento Kings - Memphis Grizzlies,91:90,3.34,1.35
03:30,Utah Jazz - New Orleans Pelicans,108:100,1.40,3.09
01:30,Dallas Mavericks - Oklahoma City Thunder,91:92,2.10,1.78
01:00,San Antonio Spurs - Cleveland Cavaliers,103:74,1.45,2.87
00:30,New York Knicks - Detroit Pistons,109:95,2.00,1.86
00:30,Toronto Raptors - Orlando Magic,131:112,1.28,3.88
,,,,
,,,,
02:30,Los Angeles Lakers - Portland Trail Blazers,81:97,3.26,1.37
01:00,Denver Nuggets - New Orleans Pelicans,90:115,1.30,3.71
01:00,Golden State Warriors - Memphis Grizzlies,106:94,1.12,6.77
,,,,
,,,,
23:00,Boston Celtics - Miami Heat,112:108,1.42,3.04
23:00,Indiana Pacers - Philadelphia 76ers,107:94,1.22,4.63
20:30,Houston Rockets - Oklahoma City Thunder,137:125,1.41,3.03
20:30,Los Angeles Clippers - Sacramento Kings,97:98,1.08,9.28
20:30,Milwaukee Bucks - Chicago Bulls,94:109,1.37,3.25
18:00,Atlanta Hawks - Brooklyn Nets,92:107,1.35,3.33
18:00,Charlotte Hornets - Phoenix Suns,120:106,1.08,8.98
03:00,Portland Trail Blazers - Minnesota Timberwolves,112:100,1.39,3.12
00:30,Dallas Mavericks - Toronto Raptors,86:94,1.94,1.92
00:30,San Antonio Spurs - New York Knicks,106:98,1.04,14.08
,,,,
,,,,
23:30,Cleveland Cavaliers - Washington Wizards,115:127,1.42,3.01
19:30,Los Angeles Clippers - Utah Jazz,108:95,1.49,2.73
02:30,Golden State Warriors - Sacramento Kings,114:100,1.01,21.11
02:30,Los Angeles Lakers - Minnesota Timberwolves,130:119 OT,3.30,1.36
00:00,Chicago Bulls - Philadelphia 76ers,107:117,1.36,3.29
00:00,Houston Rockets - New Orleans Pelicans,117:107,1.27,3.98
00:00,Milwaukee Bucks - Atlanta Hawks,100:97,1.36,3.31
,,,,
,,,,
23:30,Boston Celtics - Phoenix Suns,130:120,1.02,18.53
23:00,Charlotte Hornets - Cleveland Cavaliers,105:112,2.43,1.60
23:00,Indiana Pacers - Denver Nuggets,117:125,1.81,2.07
23:00,Orlando Magic - Detroit Pistons,115:87,2.15,1.75
23:00,Washington Wizards - Brooklyn Nets,129:108,1.15,6.02
02:00,Portland Trail Blazers - New York Knicks,110:95,1.08,9.26
00:30,Dallas Mavericks - Los Angeles Clippers,97:95,2.85,1.46
00:30,San Antonio Spurs - Memphis Grizzlies,97:90,1.27,4.02
,,,,
,,,,
23:30,Brooklyn Nets - Phoenix Suns,126:98,1.44,2.91
23:30,Miami Heat - Toronto Raptors,84:101,1.57,2.51
02:30,Sacramento Kings - Milwaukee Bucks,98:116,2.82,1.47
02:30,Utah Jazz - New York Knicks,108:101,1.11,7.16
01:00,Denver Nuggets - Cleveland Cavaliers,126:113,2.19,1.73
00:00,Chicago Bulls - Detroit Pistons,117:95,2.10,1.79
00:00,Oklahoma City Thunder - Philadelphia 76ers,122:97,1.12,6.72
00:00,Washington Wizards - Atlanta Hawks,104:100,1.31,3.67
,,,,
,,,,
,,,,
,,,,
,,,,
,,,,
,,,,
,,,,
,,,,
,,,,
,,,,
,,,,
,,,,
,,,,
,,,,
,,,,
,,,,
,,,,
,,,,
,,,,
23:30,Boston Celtics - Indiana Pacers,109:100,1.36,3.32
23:00,Orlando Magic - Charlotte Hornets,102:109,2.67,1.52
02:30,Los Angeles Lakers - Los Angeles Clippers,109:133,5.23,1.18
02:00,Portland Trail Blazers - Milwaukee Bucks,90:93,1.58,2.49
01:30,Minnesota Timberwolves - San Antonio Spurs,93:100,2.69,1.51
00:30,Dallas Mavericks - Golden State Warriors,87:112,2.75,1.49
00:00,New Orleans Pelicans - Memphis Grizzlies,95:82,1.69,2.25
,,,,
,,,,
23:30,Brooklyn Nets - Detroit Pistons,98:96,2.92,1.44
23:30,Miami Heat - Phoenix Suns,112:97,1.12,6.96
23:00,Toronto Raptors - Chicago Bulls,122:120 OT,1.31,3.65
02:30,Los Angeles Clippers - New York Knicks,114:105,1.15,6.16
00:00,Houston Rockets - Denver Nuggets,125:124,1.26,4.10
00:00,Oklahoma City Thunder - Golden State Warriors,95:111,2.06,1.82
,,,,
,,,,
23:30,Boston Celtics - Washington Wizards,110:102,1.58,2.50
23:00,Charlotte Hornets - Atlanta Hawks,105:90,1.43,2.99
23:00,Indiana Pacers - Utah Jazz,107:100,2.09,1.79
23:00,Orlando Magic - Philadelphia 76ers,112:109 OT,1.41,3.07
01:30,Los Angeles Lakers - Cleveland Cavaliers,120:125,7.08,1.12
,,,,
,,,,
23:00,San Antonio Spurs - Sacramento Kings,118:102,1.07,10.72
22:00,Miami Heat - Portland Trail Blazers,104:115,1.42,3.00
22:00,New Orleans Pelicans - Minnesota Timberwolves,123:109,1.61,2.42
22:00,Toronto Raptors - Indiana Pacers,116:91,1.68,2.28
20:30,Detroit Pistons - Phoenix Suns,112:95,1.11,7.58
17:00,Philadelphia 76ers - Boston Celtics,105:99,2.74,1.49
16:00,Brooklyn Nets - Dallas Mavericks,104:111,2.73,1.50
02:30,Golden State Warriors - Milwaukee Bucks,117:92,1.15,6.09
01:30,Denver Nuggets - Houston Rockets,105:109,2.13,1.77
01:00,Chicago Bulls - Utah Jazz,95:86,3.10,1.40
01:00,Memphis Grizzlies - San Antonio Spurs,104:96,2.46,1.59
00:30,Los Angeles Clippers - Cleveland Cavaliers,108:78,1.40,2.93
,,,,
,,,,
23:00,Charlotte Hornets - Washington Wizards,98:93,1.59,2.47
22:00,Atlanta Hawks - Portland Trail Blazers,97:113,1.78,2.13
19:00,Oklahoma City Thunder - Sacramento Kings,110:94,1.09,8.54
02:30,Los Angeles Lakers - Milwaukee Bucks,103:107,3.85,1.29
02:00,Phoenix Suns - Orlando Magic,103:109,1.76,2.14
00:00,Miami Heat - Minnesota Timberwolves,123:105,1.54,2.58
00:00,New Orleans Pelicans - Houston Rockets,128:112,3.21,1.38
,,,,
,,,,
23:30,Brooklyn Nets - Boston Celtics,95:98,4.27,1.25
23:30,Detroit Pistons - Toronto Raptors,75:87,1.61,2.41
23:00,Philadelphia 76ers - Dallas Mavericks,116:74,2.92,1.44
23:00,Washington Wizards - Chicago Bulls,112:107,1.31,3.70
02:30,Golden State Warriors - Orlando Magic,122:92,1.07,9.87
01:00,Denver Nuggets - Los Angeles Clippers,129:114,1.46,2.85
,,,,
,,,,
23:30,Atlanta Hawks - Memphis Grizzlies,91:103,1.56,2.52
23:30,New York Knicks - Brooklyn Nets,110:121,1.47,2.81
23:00,Cleveland Cavaliers - Utah Jazz,91:83,1.27,4.04
23:00,Toronto Raptors - Oklahoma City Thunder,102:123,1.72,2.20
02:30,Los Angeles Clippers - Milwaukee Bucks,96:97,1.30,3.70
02:00,Phoenix Suns - Sacramento Kings,101:107,1.41,3.09
00:00,Houston Rockets - Los Angeles Lakers,139:100,1.03,18.16
,,,,
,,,,
,,,,
,,,,
,,,,
,,,,
,,,,
,,,,
,,,,
,,,,
,,,,
,,,,
,,,,
,,,,
,,,,
,,,,
,,,,
,,,,
,,,,
,,,,
00:00,Chicago Bulls - Memphis Grizzlies,91:98,2.16,1.75
00:00,San Antonio Spurs - Portland Trail Blazers,106:110,1.14,6.26
,,,,
,,,,
23:30,Boston Celtics - Minnesota Timberwolves,117:104,1.42,3.02
23:30,Detroit Pistons - Utah Jazz,83:97,2.24,1.70
23:30,Miami Heat - New Orleans Pelicans,120:112,1.39,3.14
23:00,Indiana Pacers - Charlotte Hornets,98:77,1.68,2.28
23:00,Washington Wizards - Dallas Mavericks,107:112,1.31,3.72
02:30,Golden State Warriors - Philadelphia 76ers,106:104,1.02,18.02
00:00,New Orleans Pelicans - Portland Trail Blazers,100:77,1.60,2.44
,,,,
,,,,
23:30,Brooklyn Nets - Oklahoma City Thunder,104:122,3.20,1.38
23:30,New York Knicks - Indiana Pacers,87:81,2.36,1.64
23:00,Cleveland Cavaliers - Detroit Pistons,128:96,1.30,3.72
02:30,Denver Nuggets - Los Angeles Lakers,129:101,1.09,8.68
02:30,Sacramento Kings - Orlando Magic,120:115,2.10,1.79
01:00,Utah Jazz - Los Angeles Clippers,114:108,1.84,2.03
00:00,Memphis Grizzlies - Milwaukee Bucks,113:93,1.58,2.47
00:00,Minnesota Timberwolves - Washington Wizards,119:104,1.77,2.12
00:00,San Antonio Spurs - Atlanta Hawks,107:99,1.34,3.45
,,,,
,,,,
23:30,Toronto Raptors - Dallas Mavericks,100:78,1.51,2.68
23:00,Charlotte Hornets - Chicago Bulls,109:115,1.33,3.51
01:30,Los Angeles Lakers - Philadelphia 76ers,116:118,1.52,2.67
01:00,Houston Rockets - Cleveland Cavaliers,117:112,1.35,3.39
01:00,Phoenix Suns - Portland Trail Blazers,101:110,2.15,1.76
,,,,
,,,,
22:00,Brooklyn Nets - New York Knicks,120:112,1.88,1.97
22:00,Indiana Pacers - Miami Heat,102:98,1.42,3.03
19:30,Boston Celtics - Chicago Bulls,100:80,1.31,3.70
03:30,Sacramento Kings - Denver Nuggets,92:105,2.77,1.48
03:00,Portland Trail Blazers - Washington Wizards,124:125 OT,1.54,2.60
02:00,Dallas Mavericks - Phoenix Suns,98:100,1.44,2.92
02:00,Memphis Grizzlies - Atlanta Hawks,90:107,1.38,3.24
01:30,San Antonio Spurs - Golden State Warriors,107:85,1.16,5.81
01:00,Miami Heat - Toronto Raptors,104:89,1.42,3.03
01:00,Milwaukee Bucks - Minnesota Timberwolves,102:95,1.67,2.30
00:00,Charlotte Hornets - New Orleans Pelicans,122:125 OT,1.61,2.43
00:00,Orlando Magic - Cleveland Cavaliers,104:116,4.49,1.23
,,,,
,,,,
22:00,Detroit Pistons - New York Knicks,112:92,1.39,3.18
20:30,Los Angeles Clippers - Philadelphia 76ers,112:100,1.06,11.22
20:00,Oklahoma City Thunder - Utah Jazz,112:104,1.54,2.62
03:30,Sacramento Kings - Washington Wizards,122:130 OT,4.10,1.26
02:00,Dallas Mavericks - Brooklyn Nets,105:96,1.17,5.48
02:00,Denver Nuggets - Boston Celtics,119:99,2.19,1.73
01:00,Atlanta Hawks - Toronto Raptors,105:99,1.66,2.32
01:00,Chicago Bulls - Houston Rockets,94:115,3.14,1.39
01:00,Milwaukee Bucks - Indiana Pacers,99:85,1.82,2.06
01:00,Minnesota Timberwolves - Golden State Warriors,103:102,2.88,1.45
00:00,Charlotte Hornets - Orlando Magic,121:81,1.23,4.58
,,,,
,,,,
03:30,Phoenix Suns - Los Angeles Lakers,110:122,1.39,3.18
03:00,Portland Trail Blazers - Philadelphia 76ers,114:108 OT,1.19,5.01
01:00,Memphis Grizzlies - Los Angeles Clippers,98:114,1.73,2.19
01:00,Oklahoma City Thunder - San Antonio Spurs,102:92,2.25,1.70
,,,,
,,,,
,,,,
,,,,
,,,,
,,,,
,,,,
,,,,
,,,,
,,,,
,,,,
,,,,
,,,,
,,,,
,,,,
,,,,
,,,,
,,,,
,,,,
,,,,
00:30,Detroit Pistons - Cleveland Cavaliers,106:101,2.64,1.52
,,,,
,,,,
03:30,Golden State Warriors - Boston Celtics,86:99,1.27,4.02
02:00,Denver Nuggets - Washington Wizards,113:123,2.10,1.79
01:30,San Antonio Spurs - Sacramento Kings,114:104,1.13,6.62
01:00,Houston Rockets - Utah Jazz,108:115,1.25,4.23
01:00,Indiana Pacers - Detroit Pistons,115:98,1.57,2.51
01:00,Milwaukee Bucks - New York Knicks,104:93,1.37,3.26
01:00,Minnesota Timberwolves - Los Angeles Clippers,107:91,2.44,1.60
01:00,New Orleans Pelicans - Toronto Raptors,87:94,1.65,2.33
00:30,Atlanta Hawks - Brooklyn Nets,110:105,1.18,5.29
00:30,Miami Heat - Charlotte Hornets,108:101,1.57,2.51
00:00,Orlando Magic - Chicago Bulls,98:91,1.96,1.90
,,,,
,,,,
02:00,Phoenix Suns - Washington Wizards,127:131,2.90,1.45
01:30,Dallas Mavericks - Los Angeles Lakers,122:111,1.22,4.62
01:00,Oklahoma City Thunder - Portland Trail Blazers,121:126,1.33,3.51
,,,,
,,,,
03:30,Los Angeles Clippers - Boston Celtics,116:102,1.32,3.58
02:00,Denver Nuggets - Sacramento Kings,108:96,1.15,6.05
02:00,Utah Jazz - New Orleans Pelicans,88:83,1.49,2.76
01:30,San Antonio Spurs - Houston Rockets,112:110,1.61,2.42
01:00,Charlotte Hornets - Indiana Pacers,100:88,1.55,2.57
01:00,Memphis Grizzlies - Brooklyn Nets,109:122,1.14,6.30
00:30,Atlanta Hawks - Golden State Warriors,111:119,2.94,1.44
00:30,Detroit Pistons - Chicago Bulls,109:95,1.41,3.06
00:00,Cleveland Cavaliers - Miami Heat,98:106,1.18,5.20
00:00,Orlando Magic - New York Knicks,105:113,1.62,2.41
00:00,Philadelphia 76ers - Milwaukee Bucks,98:112,2.86,1.46
,,,,
,,,,
02:30,Los Angeles Lakers - New Orleans Pelicans,97:105,3.07,1.41
01:30,Dallas Mavericks - Oklahoma City Thunder,104:89,1.87,1.99
,,,,
,,,,
23:00,Sacramento Kings - Utah Jazz,109:110 OT,5.20,1.18
22:00,Phoenix Suns - Boston Celtics,109:106,2.69,1.50
22:00,Washington Wizards - Orlando Magic,115:114,1.12,7.20
20:30,New York Knicks - Golden State Warriors,105:112,6.06,1.15
18:00,Atlanta Hawks - Indiana Pacers,96:97,1.66,2.32
03:00,Portland Trail Blazers - Brooklyn Nets,130:116,1.14,6.20
02:00,Denver Nuggets - Charlotte Hornets,102:112,1.45,2.89
02:00,Houston Rockets - Memphis Grizzlies,123:108,1.25,4.27
02:00,San Antonio Spurs - Minnesota Timberwolves,97:90 OT,1.30,3.78
01:30,Chicago Bulls - Los Angeles Clippers,91:101,2.33,1.65
01:00,Miami Heat - Cleveland Cavaliers,120:92,1.41,2.32
01:00,Milwaukee Bucks - Toronto Raptors,101:94,1.91,1.95
,,,,
,,,,
23:00,Philadelphia 76ers - Detroit Pistons,106:136,2.92,1.44
03:30,Los Angeles Lakers - Boston Celtics,95:115,3.60,1.32
02:30,New Orleans Pelicans - San Antonio Spurs,98:101 OT,3.19,1.39
02:00,Phoenix Suns - Oklahoma City Thunder,118:111,2.72,1.50
02:00,Utah Jazz - Brooklyn Nets,112:97,1.08,9.48
01:30,Dallas Mavericks - Memphis Grizzlies,104:100,2.27,1.68
01:00,Milwaukee Bucks - Los Angeles Clippers,112:101,2.87,1.46
00:00,Orlando Magic - Miami Heat,110:99,2.69,1.51
00:00,Philadelphia 76ers - New York Knicks,105:102,2.09,1.79
00:00,Washington Wizards - Toronto Raptors,106:114,1.48,2.79
,,,,
,,,,
,,,,
,,,,
,,,,
,,,,
,,,,
,,,,
,,,,
,,,,
,,,,
,,,,
,,,,
,,,,
,,,,
,,,,
,,,,
,,,,
,,,,
,,,,
00:00,Atlanta Hawks - Cleveland Cavaliers,130:135,2.26,1.69
,,,,
,,,,
03:30,Portland Trail Blazers - Oklahoma City Thunder,114:109,1.95,1.91
02:00,Phoenix Suns - Charlotte Hornets,120:103,2.43,1.61
01:00,Chicago Bulls - Golden State Warriors,94:87,3.69,1.31
,,,,
,,,,
03:30,Los Angeles Clippers - Houston Rockets,103:122,1.72,2.21
03:30,Sacramento Kings - Brooklyn Nets,100:109,1.72,2.21
02:00,Utah Jazz - Minnesota Timberwolves,80:107,1.36,3.31
01:30,San Antonio Spurs - Indiana Pacers,100:99,1.17,5.44
01:00,Boston Celtics - Cleveland Cavaliers,103:99,1.84,2.03
01:00,Milwaukee Bucks - Denver Nuggets,98:110,1.55,2.58
01:00,New Orleans Pelicans - Detroit Pistons,109:86,1.70,2.25
00:30,Atlanta Hawks - Dallas Mavericks,100:95,1.40,3.11
00:30,Miami Heat - Philadelphia 76ers,125:98,1.19,5.01
00:30,Toronto Raptors - Washington Wizards,96:105,1.53,2.61
00:00,Orlando Magic - New York Knicks,90:101,1.77,2.13
,,,,
,,,,
03:30,Los Angeles Lakers - Charlotte Hornets,104:109,2.65,1.52
01:00,Chicago Bulls - Denver Nuggets,107:125,1.72,2.20
01:00,Memphis Grizzlies - Phoenix Suns,130:112,1.22,4.66
01:00,Oklahoma City Thunder - Utah Jazz,109:106,2.12,1.77
00:30,Detroit Pistons - Portland Trail Blazers,120:113 OT,1.58,2.50
00:00,Washington Wizards - Golden State Warriors,112:108,3.51,1.33
,,,,
,,,,
03:30,Sacramento Kings - Minnesota Timberwolves,88:102,2.57,1.55
02:30,Houston Rockets - Indiana Pacers,108:117,1.18,5.27
01:30,Dallas Mavericks - Miami Heat,96:89,1.98,1.88
00:30,Boston Celtics - Atlanta Hawks,98:114,1.54,2.59
00:00,Cleveland Cavaliers - Milwaukee Bucks,102:95,1.19,5.15
00:00,New York Knicks - Toronto Raptors,91:92,2.39,1.62
00:00,Philadelphia 76ers - Golden State Warriors,108:119,11.39,1.06
,,,,
,,,,
02:30,Los Angeles Clippers - Charlotte Hornets,124:121 OT,1.16,5.77
00:00,Oklahoma City Thunder - New Orleans Pelicans,118:110,1.40,3.10
,,,,
,,,,
23:00,Detroit Pistons - Boston Celtics,98:104,2.13,1.76
23:00,Toronto Raptors - Portland Trail Blazers,112:106,1.46,2.85
22:00,Denver Nuggets - Memphis Grizzlies,98:105,1.78,2.11
22:00,Washington Wizards - Utah Jazz,92:102,1.76,2.13
20:30,Los Angeles Lakers - San Antonio Spurs,98:119,7.40,1.11
20:30,Milwaukee Bucks - Phoenix Suns,100:96,1.41,3.08
03:30,Golden State Warriors - Brooklyn Nets,112:95,1.01,24.70
02:00,Houston Rockets - Minnesota Timberwolves,142:130,1.10,7.87
01:30,Cleveland Cavaliers - Chicago Bulls,99:117,1.40,3.13
01:30,Dallas Mavericks - New Orleans Pelicans,96:83,2.15,1.75
01:00,Miami Heat - Indiana Pacers,113:95,1.53,2.63
00:30,New York Knicks - Philadelphia 76ers,110:109,1.38,3.22
00:00,Orlando Magic - Atlanta Hawks,105:86,2.45,1.60
,,,,
,,,,
22:00,Sacramento Kings - Charlotte Hornets,85:99,2.50,1.58
03:30,Los Angeles Clippers - San Antonio Spurs,97:105,2.23,1.70
02:00,Denver Nuggets - Brooklyn Nets,129:109,1.17,5.45
01:00,Atlanta Hawks - Miami Heat,90:108,1.70,2.24
01:00,Chicago Bulls - Phoenix Suns,128:121 OT,1.42,3.02
01:00,Milwaukee Bucks - Utah Jazz,95:109,2.38,1.63
01:00,Minnesota Timberwolves - Dallas Mavericks,97:84,1.60,2.45
,,,,
,,,,
,,,,
,,,,
,,,,
,,,,
,,,,
,,,,
,,,,
,,,,
,,,,
,,,,
,,,,
,,,,
,,,,
,,,,
,,,,
,,,,
,,,,
,,,,
01:00,Oklahoma City Thunder - Los Angeles Lakers,110:93,1.16,5.71
01:00,Toronto Raptors - Boston Celtics,107:97,1.81,2.08
00:00,Indiana Pacers - Memphis Grizzlies,102:92,1.93,1.92
00:00,Philadelphia 76ers - Washington Wizards,120:112,4.27,1.25
,,,,
,,,,
03:30,Golden State Warriors - Los Angeles Clippers,123:113,1.09,8.57
03:30,Sacramento Kings - Denver Nuggets,116:100,3.27,1.37
01:00,Cleveland Cavaliers - New York Knicks,119:104,1.16,5.83
01:00,New Orleans Pelicans - Houston Rockets,99:129,2.46,1.60
00:30,Detroit Pistons - Charlotte Hornets,114:108 OT,1.50,2.71
00:00,Orlando Magic - Portland Trail Blazers,103:112,2.29,1.67
,,,,
,,,,
01:00,West - East,192:182,1.43,2.92
,,,,
,,,,
02:00,Team USA - Team World,141:150,1.51,2.68
,,,,
,,,,
01:00,Chicago Bulls - Boston Celtics,104:103,1.96,1.90
00:00,Indiana Pacers - Washington Wizards,98:111,2.24,1.70
,,,,
,,,,
03:30,Golden State Warriors - Sacramento Kings,109:86,1.02,19.91
03:30,Los Angeles Clippers - Atlanta Hawks,99:84,1.62,2.39
02:30,Oklahoma City Thunder - New York Knicks,116:105,1.33,3.55
02:00,Denver Nuggets - Minnesota Timberwolves,99:112,1.39,3.16
02:00,Phoenix Suns - Los Angeles Lakers,137:101,1.55,2.58
02:00,Utah Jazz - Portland Trail Blazers,111:88,1.24,4.38
01:00,Houston Rockets - Miami Heat,109:117,1.17,5.50
01:00,Memphis Grizzlies - New Orleans Pelicans,91:95,1.28,3.94
00:30,Boston Celtics - Philadelphia 76ers,116:108,1.17,5.39
00:30,Brooklyn Nets - Milwaukee Bucks,125:129,2.80,1.48
00:30,Detroit Pistons - Dallas Mavericks,98:91,1.53,2.62
00:30,Toronto Raptors - Charlotte Hornets,90:85,1.39,3.15
00:00,Cleveland Cavaliers - Indiana Pacers,113:104,1.40,3.10
00:00,Orlando Magic - San Antonio Spurs,79:107,5.58,1.17
,,,,
,,,,
03:30,Los Angeles Lakers - Sacramento Kings,96:97,1.71,2.22
01:00,Chicago Bulls - Toronto Raptors,105:94,2.57,1.55
01:00,Minnesota Timberwolves - Cleveland Cavaliers,108:116,2.50,1.58
,,,,
,,,,
03:30,Portland Trail Blazers - Atlanta Hawks,104:109 OT,1.77,2.13
02:00,Denver Nuggets - Golden State Warriors,132:110,7.18,1.11
02:00,Phoenix Suns - New Orleans Pelicans,108:110,1.62,2.40
02:00,Utah Jazz - Los Angeles Clippers,72:88,1.26,4.16
01:30,Dallas Mavericks - Boston Celtics,98:111,2.09,1.80
01:00,Milwaukee Bucks - Detroit Pistons,102:89,1.68,2.29
01:00,Washington Wizards - Oklahoma City Thunder,120:98,1.43,2.96
00:30,Brooklyn Nets - Memphis Grizzlies,103:112,4.36,1.24
00:30,Miami Heat - Orlando Magic,107:116,1.29,3.82
00:00,Charlotte Hornets - Philadelphia 76ers,99:105,1.28,3.88
00:00,Indiana Pacers - San Antonio Spurs,106:110,2.70,1.50
,,,,
,,,,
02:00,Sacramento Kings - New Orleans Pelicans,105:99,1.58,2.48
,,,,
,,,,
23:00,Toronto Raptors - Detroit Pistons,101:102,1.36,3.29
20:30,Minnesota Timberwolves - Chicago Bulls,117:89,1.37,3.30
20:30,New York Knicks - San Antonio Spurs,94:90,4.69,1.22
03:00,Utah Jazz - Boston Celtics,104:112,1.37,3.29
02:00,Dallas Mavericks - Orlando Magic,112:80,1.37,3.24
02:00,Houston Rockets - Phoenix Suns,133:102,1.04,14.01
01:30,Oklahoma City Thunder - Golden State Warriors,114:130,3.88,1.28
,,,,
,,,,
,,,,
,,,,
,,,,
,,,,
,,,,
,,,,
,,,,
,,,,
,,,,
,,,,
,,,,
,,,,
,,,,
,,,,
,,,,
,,,,
,,,,
,,,,
00:30,Cleveland Cavaliers - Denver Nuggets,125:109,1.12,6.99
00:30,Philadelphia 76ers - Miami Heat,117:109,2.30,1.67
00:00,Indiana Pacers - Milwaukee Bucks,100:116,1.39,3.19
,,,,
,,,,
22:00,Charlotte Hornets - Los Angeles Clippers,102:107,1.70,2.23
03:30,Phoenix Suns - Chicago Bulls,115:97,2.36,1.64
03:30,Sacramento Kings - Atlanta Hawks,108:107,2.08,1.81
01:00,Memphis Grizzlies - Golden State Warriors,107:122,3.85,1.29
01:00,Milwaukee Bucks - Los Angeles Lakers,114:122,1.44,2.93
01:00,Minnesota Timberwolves - New Orleans Pelicans,106:122,1.51,2.68
01:00,Washington Wizards - Indiana Pacers,112:107,1.42,3.00
00:30,Brooklyn Nets - Miami Heat,99:108,2.91,1.44
00:30,Detroit Pistons - San Antonio Spurs,92:103,2.67,1.51
00:30,New York Knicks - Denver Nuggets,123:131,1.79,2.10
,,,,
,,,,
03:30,Portland Trail Blazers - Boston Celtics,111:120,1.65,2.33
01:30,Dallas Mavericks - Utah Jazz,112:105 OT,2.15,1.75
01:00,Oklahoma City Thunder - Cleveland Cavaliers,118:109,1.21,5.01
00:00,Charlotte Hornets - Houston Rockets,95:107,2.22,1.71
00:00,Orlando Magic - Philadelphia 76ers,111:112,1.39,3.15
,,,,
,,,,
03:30,Golden State Warriors - Chicago Bulls,123:92,1.02,17.89
03:30,Sacramento Kings - Boston Celtics,108:92,4.39,1.24
01:00,Memphis Grizzlies - Phoenix Suns,110:91,1.28,3.87
01:00,Milwaukee Bucks - Miami Heat,88:106,1.56,2.53
01:00,Minnesota Timberwolves - Toronto Raptors,112:109,2.38,1.63
01:00,New Orleans Pelicans - Utah Jazz,94:127,2.46,1.60
01:00,New York Knicks - Los Angeles Clippers,115:119,1.98,1.88
00:30,Atlanta Hawks - Denver Nuggets,117:106,1.60,2.45
00:30,Brooklyn Nets - Washington Wizards,110:114 OT,5.28,1.18
00:30,Detroit Pistons - Los Angeles Lakers,121:102,1.35,3.38
00:00,Indiana Pacers - Cleveland Cavaliers,117:132,2.40,1.62
00:00,Philadelphia 76ers - San Antonio Spurs,103:111,6.78,1.12
,,,,
,,,,
01:30,Dallas Mavericks - Portland Trail Blazers,113:114,2.19,1.73
01:00,Houston Rockets - Orlando Magic,128:104,1.13,6.80
00:00,Charlotte Hornets - Brooklyn Nets,111:107,1.18,5.35
,,,,
,,,,
03:30,Sacramento Kings - Chicago Bulls,107:112,1.60,2.47
02:30,Memphis Grizzlies - San Antonio Spurs,89:74,1.93,1.94
02:00,Denver Nuggets - Dallas Mavericks,110:87,1.66,2.31
01:00,Minnesota Timberwolves - Miami Heat,113:115,1.87,2.00
01:00,New Orleans Pelicans - Phoenix Suns,111:106,1.43,2.96
00:30,Atlanta Hawks - Utah Jazz,95:120,1.89,1.97
00:30,Detroit Pistons - Philadelphia 76ers,113:96,1.23,4.50
00:30,Toronto Raptors - Los Angeles Clippers,118:109,1.38,3.22
00:00,Indiana Pacers - Oklahoma City Thunder,93:90,1.51,2.66
00:00,New York Knicks - Los Angeles Lakers,107:121,1.48,2.78
00:00,Washington Wizards - Cleveland Cavaliers,135:140 OT,2.01,1.86
,,,,
,,,,
20:00,Oklahoma City Thunder - Portland Trail Blazers,105:99,1.50,2.72
19:00,Boston Celtics - Los Angeles Clippers,107:102,1.45,2.89
17:00,Brooklyn Nets - Toronto Raptors,95:103,3.39,1.35
03:30,Sacramento Kings - Golden State Warriors,109:106 OT,12.26,1.06
02:00,Phoenix Suns - Milwaukee Bucks,112:137,2.03,1.84
02:00,San Antonio Spurs - Denver Nuggets,121:97,1.08,8.86
,,,,
,,,,
,,,,
,,,,
,,,,
,,,,
,,,,
,,,,
,,,,
,,,,
,,,,
,,,,
,,,,
,,,,
,,,,
,,,,
,,,,
,,,,
,,,,
,,,,
02:00,Minnesota Timberwolves - Memphis Grizzlies,99:107,1.56,2.55
02:00,Utah Jazz - Charlotte Hornets,105:98,1.28,3.92
01:30,New York Knicks - Cleveland Cavaliers,104:111,2.59,1.54
00:30,Miami Heat - Philadelphia 76ers,125:102,1.20,4.93
00:00,Atlanta Hawks - Orlando Magic,113:86,1.31,3.65
00:00,Indiana Pacers - Detroit Pistons,105:84,1.67,2.29
00:00,Washington Wizards - New Orleans Pelicans,105:91,1.35,3.38
,,,,
,,,,
03:30,Portland Trail Blazers - Dallas Mavericks,104:108,1.39,3.17
03:30,Sacramento Kings - Phoenix Suns,103:105,1.55,2.58
02:00,Denver Nuggets - Milwaukee Bucks,121:117,1.64,2.36
01:00,Boston Celtics - Los Angeles Lakers,113:107,1.14,6.31
01:00,Houston Rockets - Chicago Bulls,121:117 OT,1.20,5.06
01:00,Oklahoma City Thunder - Memphis Grizzlies,114:102,1.98,1.88
00:30,Brooklyn Nets - Indiana Pacers,97:106,3.30,1.37
00:30,Detroit Pistons - Minnesota Timberwolves,116:108,1.55,2.58
00:00,Orlando Magic - Toronto Raptors,102:94,2.80,1.47
,,,,
,,,,
03:30,Los Angeles Clippers - Golden State Warriors,120:133,3.84,1.29
01:30,San Antonio Spurs - Philadelphia 76ers,102:86,1.03,15.71
01:00,Houston Rockets - Atlanta Hawks,108:113,1.19,5.20
00:00,Washington Wizards - Los Angeles Lakers,116:108,1.15,5.87
,,,,
,,,,
03:30,Golden State Warriors - Charlotte Hornets,126:111,1.05,12.90
02:30,Oklahoma City Thunder - Chicago Bulls,100:128,1.67,2.29
02:00,Denver Nuggets - Memphis Grizzlies,99:119,2.51,1.57
02:00,Phoenix Suns - Los Angeles Clippers,114:124,2.26,1.69
02:00,Utah Jazz - Milwaukee Bucks,104:88,1.29,3.87
01:30,Dallas Mavericks - Philadelphia 76ers,113:95,1.30,3.70
00:30,Boston Celtics - Toronto Raptors,109:104,1.37,3.31
00:30,Brooklyn Nets - New York Knicks,90:95,2.24,1.70
00:30,Detroit Pistons - New Orleans Pelicans,118:98,1.32,3.62
00:30,Miami Heat - Atlanta Hawks,116:93,1.83,2.05
00:00,Cleveland Cavaliers - Minnesota Timberwolves,125:97,1.34,3.42
00:00,Orlando Magic - Indiana Pacers,88:98,2.23,1.71
,,,,
,,,,
03:30,Los Angeles Lakers - Denver Nuggets,120:116,1.97,1.89
03:00,Portland Trail Blazers - Charlotte Hornets,115:98,1.60,2.44
01:30,San Antonio Spurs - Oklahoma City Thunder,108:94,1.21,4.80
01:00,Houston Rockets - Sacramento Kings,105:83,1.11,7.47
00:00,Toronto Raptors - New Orleans Pelicans,108:106 OT,1.31,3.64
00:00,Washington Wizards - New York Knicks,117:101,1.28,3.97
,,,,
,,,,
03:30,Phoenix Suns - Memphis Grizzlies,96:115,2.43,1.61
01:30,Dallas Mavericks - Cleveland Cavaliers,104:97,2.56,1.55
01:00,Boston Celtics - Detroit Pistons,113:109,1.45,2.86
01:00,Minnesota Timberwolves - Orlando Magic,111:105 OT,1.27,4.03
00:30,Miami Heat - Brooklyn Nets,104:96,1.26,4.07
,,,,
,,,,
23:00,Philadelphia 76ers - Sacramento Kings,122:119,2.32,1.66
02:00,Portland Trail Blazers - Golden State Warriors,111:113,3.08,1.41
00:00,Chicago Bulls - Philadelphia 76ers,121:108,1.34,3.45
00:00,San Antonio Spurs - Dallas Mavericks,101:105,1.09,8.26
,,,,
,,,,
23:00,Indiana Pacers - Houston Rockets,120:101,2.39,1.62
23:00,New Orleans Pelicans - Washington Wizards,94:107,1.94,1.92
23:00,Toronto Raptors - Orlando Magic,113:114,1.15,6.02
,,,,
,,,,
,,,,
,,,,
,,,,
,,,,
,,,,
,,,,
,,,,
,,,,
,,,,
,,,,
,,,,
,,,,
,,,,
,,,,
,,,,
,,,,
,,,,
,,,,
20:30,Cleveland Cavaliers - Oklahoma City Thunder,107:91,1.29,3.85
20:00,Atlanta Hawks - New York Knicks,142:139 OT,1.39,3.15
02:00,Minnesota Timberwolves - Brooklyn Nets,129:109,1.14,6.32
02:00,Phoenix Suns - Denver Nuggets,112:123,1.64,2.36
02:00,Utah Jazz - Memphis Grizzlies,95:102,1.28,3.89
01:30,Golden State Warriors - Los Angeles Clippers,144:98,1.08,8.96
01:00,Milwaukee Bucks - Boston Celtics,108:112 OT,1.71,2.22
00:30,Miami Heat - Detroit Pistons,116:103,2.37,1.63
00:00,Charlotte Hornets - Sacramento Kings,106:109,1.32,3.58
,,,,
,,,,
03:00,Portland Trail Blazers - Memphis Grizzlies,112:109,1.87,1.99
01:00,Atlanta Hawks - Washington Wizards,86:112,1.65,2.33
01:00,Chicago Bulls - Miami Heat,88:100,1.32,3.59
01:00,New Orleans Pelicans - San Antonio Spurs,119:103,3.25,1.38
01:00,Philadelphia 76ers - Houston Rockets,118:123,3.35,1.36
00:30,Boston Celtics - Orlando Magic,128:98,1.31,3.72
00:30,Cleveland Cavaliers - Brooklyn Nets,124:116,1.02,18.37
00:30,New York Knicks - Charlotte Hornets,110:107,1.99,1.87
00:30,Toronto Raptors - Milwaukee Bucks,102:86,1.41,3.06
00:00,Indiana Pacers - Sacramento Kings,115:111 OT,1.56,2.55
,,,,
,,,,
03:30,Utah Jazz - Los Angeles Lakers,96:88,1.09,9.02
02:00,Denver Nuggets - Phoenix Suns,127:120,1.39,3.16
01:00,Minnesota Timberwolves - Indiana Pacers,103:109,1.65,2.35
01:00,Oklahoma City Thunder - Dallas Mavericks,109:98,1.21,4.82
,,,,
,,,,
03:30,Portland Trail Blazers - Los Angeles Lakers,105:98,1.26,4.17
01:30,Dallas Mavericks - New York Knicks,103:95,1.66,2.32
01:00,Charlotte Hornets - Golden State Warriors,103:113,5.31,1.18
01:00,Chicago Bulls - Atlanta Hawks,114:119,2.06,1.82
01:00,Memphis Grizzlies - Toronto Raptors,101:99,1.50,2.72
01:00,Milwaukee Bucks - Philadelphia 76ers,109:114,1.13,6.53
01:00,New Orleans Pelicans - Oklahoma City Thunder,105:114,2.03,1.83
00:30,Boston Celtics - Houston Rockets,120:109,2.50,1.57
00:30,Brooklyn Nets - Miami Heat,106:109,2.23,1.71
00:00,Cleveland Cavaliers - Sacramento Kings,112:116 OT,1.12,6.86
,,,,
,,,,
02:00,Denver Nuggets - Utah Jazz,103:93,1.77,2.13
02:00,Phoenix Suns - Minnesota Timberwolves,111:112,2.04,1.83
00:00,Orlando Magic - Chicago Bulls,92:100,2.32,1.66
00:00,Philadelphia 76ers - Los Angeles Clippers,121:110,2.63,1.53
00:00,Toronto Raptors - San Antonio Spurs,106:108,1.78,2.14
00:00,Washington Wizards - Boston Celtics,123:108,1.99,1.88
,,,,
,,,,
02:00,Utah Jazz - Oklahoma City Thunder,95:97,1.50,2.72
01:00,Indiana Pacers - New York Knicks,103:109,1.43,2.96
01:00,Milwaukee Bucks - Houston Rockets,127:114,2.78,1.48
01:00,New Orleans Pelicans - Cleveland Cavaliers,124:122,5.19,1.19
00:30,Atlanta Hawks - Los Angeles Clippers,105:115,1.32,3.62
00:30,Brooklyn Nets - San Antonio Spurs,86:112,4.19,1.25
00:30,Detroit Pistons - Sacramento Kings,104:109,1.35,3.40
00:30,Miami Heat - Golden State Warriors,105:102,6.62,1.13
00:00,Charlotte Hornets - Washington Wizards,99:109,1.43,3.00
,,,,
,,,,
00:00,Minnesota Timberwolves - Denver Nuggets,111:108,1.59,2.46
,,,,
,,,,
23:00,Toronto Raptors - Phoenix Suns,103:115,1.10,7.69
,,,,
,,,,
,,,,
,,,,
,,,,
,,,,
,,,,
,,,,
,,,,
,,,,
,,,,
,,,,
,,,,
,,,,
,,,,
,,,,
,,,,
,,,,
,,,,
,,,,
20:30,Dallas Mavericks - Los Angeles Lakers,122:73,1.42,3.01
17:00,Orlando Magic - Golden State Warriors,98:118,11.60,1.06
02:00,Chicago Bulls - Sacramento Kings,102:99,1.36,3.31
02:00,Denver Nuggets - Los Angeles Clippers,123:98,1.48,2.77
02:00,Utah Jazz - Indiana Pacers,109:100,1.33,3.51
01:30,Cleveland Cavaliers - San Antonio Spurs,115:118 OT,1.61,2.43
01:00,Memphis Grizzlies - Houston Rockets,95:119,2.01,1.86
00:30,Miami Heat - Milwaukee Bucks,109:97,2.05,1.83
00:30,New York Knicks - Phoenix Suns,105:107,1.47,2.82
00:00,Atlanta Hawks - Philadelphia 76ers,110:93,1.17,5.55
00:00,Charlotte Hornets - Brooklyn Nets,112:105,1.11,7.24
,,,,
,,,,
23:00,Detroit Pistons - Washington Wizards,113:112,1.78,2.11
22:00,Boston Celtics - Portland Trail Blazers,123:127 OT,1.28,3.89
03:30,Los Angeles Lakers - Indiana Pacers,108:95,2.45,1.60
01:30,Dallas Mavericks - Utah Jazz,107:112 OT,2.91,1.45
01:00,Atlanta Hawks - Chicago Bulls,102:93,1.56,2.54
01:00,Houston Rockets - Golden State Warriors,108:125,2.87,1.45
01:00,Memphis Grizzlies - Sacramento Kings,107:91,1.27,4.02
01:00,New Orleans Pelicans - Brooklyn Nets,114:143,1.18,5.22
00:00,Charlotte Hornets - Toronto Raptors,113:78,1.85,2.02
00:00,Orlando Magic - Milwaukee Bucks,112:96,2.40,1.62
00:00,Philadelphia 76ers - Portland Trail Blazers,93:92,2.20,1.72
,,,,
,,,,
03:30,Los Angeles Clippers - Minnesota Timberwolves,101:104,2.07,1.81
01:30,San Antonio Spurs - Denver Nuggets,118:104,1.11,7.53
01:00,New York Knicks - Washington Wizards,110:113,2.04,1.83
00:30,Miami Heat - Dallas Mavericks,99:95,1.77,2.14
00:00,Cleveland Cavaliers - Phoenix Suns,118:103,1.12,6.94
,,,,
,,,,
03:30,Golden State Warriors - Oklahoma City Thunder,121:100,1.07,10.36
03:30,Sacramento Kings - Indiana Pacers,100:106,1.73,2.19
01:00,Detroit Pistons - Atlanta Hawks,118:95,2.11,1.78
01:00,Houston Rockets - Milwaukee Bucks,111:92,1.37,3.28
01:00,New Orleans Pelicans - Orlando Magic,118:98,1.50,2.72
00:30,Boston Celtics - New York Knicks,106:117,1.20,4.95
00:00,Charlotte Hornets - Portland Trail Blazers,107:85,1.44,2.95
00:00,Philadelphia 76ers - Toronto Raptors,94:89,2.89,1.45
00:00,Washington Wizards - Memphis Grizzlies,104:101,1.78,2.11
,,,,
,,,,
03:30,Los Angeles Lakers - Denver Nuggets,121:127,1.92,1.93
01:30,San Antonio Spurs - Minnesota Timberwolves,122:114,1.11,7.41
01:00,Chicago Bulls - Dallas Mavericks,98:99,1.49,2.74
00:30,Brooklyn Nets - Toronto Raptors,109:119,5.27,1.20
00:30,Miami Heat - Houston Rockets,109:103,3.66,1.31
,,,,
,,,,
03:30,Los Angeles Clippers - Oklahoma City Thunder,120:98,1.27,4.08
02:00,Phoenix Suns - Utah Jazz,101:106,3.13,1.40
01:00,Golden State Warriors - Cleveland Cavaliers,126:91,1.25,4.28
00:30,Boston Celtics - Charlotte Hornets,108:98,1.47,2.82
,,,,
,,,,
22:00,Denver Nuggets - Orlando Magic,125:112,1.45,2.91
21:00,Indiana Pacers - New Orleans Pelicans,98:95,1.50,2.69
20:30,Milwaukee Bucks - Philadelphia 76ers,104:113,1.25,4.20
19:00,Washington Wizards - Portland Trail Blazers,120:101,1.60,2.45
18:00,New York Knicks - Atlanta Hawks,107:108,2.23,1.70
,,,,
,,,,
,,,,
,,,,
,,,,
,,,,
,,,,
,,,,
,,,,
,,,,
,,,,
,,,,
,,,,
,,,,
,,,,
,,,,
,,,,
,,,,
,,,,
,,,,
02:30,Los Angeles Lakers - Detroit Pistons,97:102,2.12,1.78
02:00,Memphis Grizzlies - Chicago Bulls,104:108,1.26,4.19
02:00,Sacramento Kings - Oklahoma City Thunder,118:122,2.07,1.80
,,,,
,,,,
23:00,Brooklyn Nets - Houston Rockets,112:137,11.61,1.06
20:00,Atlanta Hawks - Milwaukee Bucks,111:98,1.57,2.51
20:00,Toronto Raptors - New York Knicks,116:101,1.17,5.38
19:00,Dallas Mavericks - Minnesota Timberwolves,98:87,1.95,1.91
02:00,Utah Jazz - Orlando Magic,114:107,1.11,7.60
01:00,Washington Wizards - Philadelphia 76ers,109:93,1.18,5.31
,,,,
,,,,
23:00,Phoenix Suns - San Antonio Spurs,108:105,8.15,1.10
22:00,Chicago Bulls - New Orleans Pelicans,107:99,1.61,2.42
20:30,Los Angeles Clippers - Los Angeles Lakers,113:97,1.13,6.54
03:30,Sacramento Kings - Cleveland Cavaliers,108:120,3.24,1.37
03:30,Utah Jazz - Detroit Pistons,110:77,1.15,6.08
03:00,Portland Trail Blazers - Orlando Magic,109:115,1.33,3.56
01:00,Atlanta Hawks - Boston Celtics,101:103,1.63,2.37
01:00,Houston Rockets - Memphis Grizzlies,105:110,1.31,3.69
01:00,Milwaukee Bucks - Miami Heat,116:108,1.29,3.83
01:00,Minnesota Timberwolves - Oklahoma City Thunder,96:86,2.11,1.78
00:30,Toronto Raptors - Brooklyn Nets,132:113,1.04,14.71
00:00,Philadelphia 76ers - Charlotte Hornets,102:93,2.83,1.47
,,,,
,,,,
03:30,Golden State Warriors - Detroit Pistons,127:107,1.07,10.14
03:00,Phoenix Suns - Dallas Mavericks,108:113,2.13,1.76
01:30,San Antonio Spurs - Los Angeles Lakers,134:94,1.05,12.30
01:00,New York Knicks - Chicago Bulls,104:89,1.66,2.31
00:30,Brooklyn Nets - New Orleans Pelicans,95:104,1.80,2.10
,,,,
,,,,
20:00,Denver Nuggets - Indiana Pacers,140:112,2.63,1.53
03:30,Los Angeles Clippers - Orlando Magic,105:96,1.18,5.41
03:30,Portland Trail Blazers - Cleveland Cavaliers,102:86,2.73,1.50
01:00,Boston Celtics - Washington Wizards,117:108,1.42,3.00
01:00,Minnesota Timberwolves - Houston Rockets,119:105,2.37,1.63
01:00,Oklahoma City Thunder - Memphis Grizzlies,103:95,1.53,2.64
00:00,Philadelphia 76ers - New York Knicks,98:97,2.11,1.78
,,,,
,,,,
03:30,Golden State Warriors - Miami Heat,107:95,1.05,12.52
03:30,Los Angeles Lakers - Portland Trail Blazers,87:108,2.19,1.73
03:30,Sacramento Kings - Detroit Pistons,100:94,1.68,2.27
02:00,Utah Jazz - Cleveland Cavaliers,100:92,2.06,1.81
01:30,San Antonio Spurs - Milwaukee Bucks,107:109,1.18,5.27
01:00,Houston Rockets - Charlotte Hornets,121:114,1.23,4.58
00:30,Brooklyn Nets - Atlanta Hawks,97:117,4.17,1.26
00:30,Toronto Raptors - Boston Celtics,114:106,1.46,2.86
00:00,Washington Wizards - Chicago Bulls,101:99,1.12,6.79
,,,,
,,,,
01:00,Chicago Bulls - Oklahoma City Thunder,94:109,1.95,1.91
01:00,Minnesota Timberwolves - Dallas Mavericks,101:92,1.50,2.69
00:30,New York Knicks - New Orleans Pelicans,96:110,1.60,2.44
,,,,
,,,,
02:30,Los Angeles Lakers - Orlando Magic,111:95,1.69,2.24
02:00,Portland Trail Blazers - Detroit Pistons,124:125 OT,1.61,2.43
02:00,Sacramento Kings - Golden State Warriors,106:117,6.70,1.13
01:30,Phoenix Suns - Cleveland Cavaliers,116:120,4.28,1.25
01:00,Memphis Grizzlies - Utah Jazz,88:79,1.71,2.22
,,,,
,,,,
,,,,
,,,,
,,,,
,,,,
,,,,
,,,,
,,,,
,,,,
,,,,
,,,,
,,,,
,,,,
,,,,
,,,,
,,,,
,,,,
,,,,
,,,,
23:00,Toronto Raptors - Houston Rockets,122:129,2.17,1.74
20:30,Los Angeles Clippers - Miami Heat,98:86,1.21,4.81
19:00,Milwaukee Bucks - Washington Wizards,101:107,1.94,1.93
17:00,Brooklyn Nets - Philadelphia 76ers,95:105,1.87,2.00
01:30,Dallas Mavericks - Atlanta Hawks,82:97,2.01,1.86
01:30,San Antonio Spurs - Charlotte Hornets,102:85,1.14,6.23
01:00,Chicago Bulls - Toronto Raptors,123:118 OT,2.01,1.86
01:00,Minnesota Timberwolves - Utah Jazz,92:94,2.69,1.51
01:00,Oklahoma City Thunder - Denver Nuggets,121:106,1.29,3.84
00:30,Boston Celtics - New Orleans Pelicans,117:108,1.39,3.18
00:00,Indiana Pacers - New York Knicks,123:109,1.33,3.51
,,,,
,,,,
03:30,Golden State Warriors - Memphis Grizzlies,119:128 OT,1.07,9.94
03:30,Los Angeles Lakers - Miami Heat,127:100,1.73,2.20
03:30,Sacramento Kings - Los Angeles Clippers,98:106,2.23,1.70
01:00,Milwaukee Bucks - New York Knicks,111:116,1.47,2.79
00:30,Boston Celtics - Philadelphia 76ers,110:106,1.15,5.99
00:30,Brooklyn Nets - Cleveland Cavaliers,108:116,8.57,1.09
00:00,Orlando Magic - Houston Rockets,93:100,2.79,1.48
00:00,Washington Wizards - Minnesota Timberwolves,112:105,1.50,2.72
,,,,
,,,,
03:30,Portland Trail Blazers - Los Angeles Lakers,118:109,1.36,3.32
02:00,Denver Nuggets - San Antonio Spurs,99:127,3.73,1.30
01:30,Dallas Mavericks - Phoenix Suns,95:102,1.42,2.99
01:00,Houston Rockets - Oklahoma City Thunder,118:116,1.26,4.16
01:00,New Orleans Pelicans - Atlanta Hawks,94:99,1.79,2.09
00:30,Detroit Pistons - Charlotte Hornets,115:114,1.48,2.77
00:30,Toronto Raptors - Utah Jazz,101:93,1.48,2.77
00:00,Indiana Pacers - Brooklyn Nets,121:109,1.16,5.74
,,,,
,,,,
03:30,Golden State Warriors - Portland Trail Blazers,125:117,1.03,15.54
03:30,Los Angeles Clippers - Memphis Grizzlies,115:106,2.04,1.83
03:30,Sacramento Kings - Miami Heat,102:107,1.29,3.83
01:00,Cleveland Cavaliers - Chicago Bulls,94:106,1.62,2.41
00:30,New York Knicks - Milwaukee Bucks,104:105,2.44,1.60
00:00,Charlotte Hornets - Oklahoma City Thunder,123:112,1.75,2.15
00:00,Orlando Magic - Atlanta Hawks,92:111,2.11,1.78
,,,,
,,,,
03:30,Los Angeles Lakers - Memphis Grizzlies,116:102,2.61,1.54
02:00,Denver Nuggets - Sacramento Kings,113:120,1.61,2.42
02:00,Phoenix Suns - Miami Heat,99:90,1.49,2.77
01:30,Dallas Mavericks - Washington Wizards,113:105,1.85,2.02
01:30,San Antonio Spurs - Toronto Raptors,110:82,1.39,3.15
00:30,Boston Celtics - Utah Jazz,115:104,1.45,2.90
00:30,Detroit Pistons - Indiana Pacers,116:121,1.49,2.73
00:00,Philadelphia 76ers - Minnesota Timberwolves,93:91,2.72,1.50
,,,,
,,,,
03:30,Golden State Warriors - Denver Nuggets,127:119,1.04,13.65
03:30,Los Angeles Clippers - Phoenix Suns,109:98,1.53,2.64
01:00,Chicago Bulls - Charlotte Hornets,118:111,2.04,1.83
01:00,Houston Rockets - Washington Wizards,101:91,1.28,3.92
00:30,Brooklyn Nets - Utah Jazz,89:101,3.42,1.35
00:30,New York Knicks - Orlando Magic,103:115,1.57,2.52
00:00,Cleveland Cavaliers - New Orleans Pelicans,90:82,1.22,4.70
00:00,Milwaukee Bucks - Oklahoma City Thunder,98:94,1.83,2.05
,,,,
,,,,
,,,,
,,,,
,,,,
,,,,
,,,,
,,,,
,,,,
,,,,
,,,,
,,,,
,,,,
,,,,
,,,,
,,,,
,,,,
,,,,
,,,,
,,,,
02:30,Los Angeles Lakers - Toronto Raptors,114:123,3.99,1.27
00:00,Minnesota Timberwolves - Portland Trail Blazers,89:95,1.42,3.03
,,,,
,,,,
23:00,Atlanta Hawks - San Antonio Spurs,114:112 OT,2.80,1.47
23:00,Indiana Pacers - Orlando Magic,117:104,1.42,3.01
23:00,Miami Heat - Detroit Pistons,98:107,3.33,1.36
01:00,Houston Rockets - New York Knicks,129:122,1.10,8.15
01:00,Oklahoma City Thunder - Los Angeles Clippers,114:88,1.23,4.48
01:00,Utah Jazz - Phoenix Suns,91:86,1.12,6.69
00:00,Charlotte Hornets - Cleveland Cavaliers,109:121,2.02,1.86
00:00,Chicago Bulls - Milwaukee Bucks,96:116,1.69,2.26
,,,,
,,,,
22:10,Sacramento Kings - Memphis Grizzlies,98:112,2.08,1.81
03:30,Golden State Warriors - Dallas Mavericks,108:99,1.02,20.39
02:00,Denver Nuggets - Philadelphia 76ers,122:124,1.17,5.62
01:30,San Antonio Spurs - Portland Trail Blazers,110:94,1.17,5.38
01:00,Atlanta Hawks - Detroit Pistons,105:98,1.71,2.22
01:00,Houston Rockets - Los Angeles Clippers,140:116,1.16,5.77
01:00,Minnesota Timberwolves - Milwaukee Bucks,116:99,1.87,1.99
01:00,New Orleans Pelicans - New York Knicks,104:92,1.65,2.33
00:30,Boston Celtics - Miami Heat,117:114,1.20,4.96
00:00,Washington Wizards - Brooklyn Nets,118:95,1.29,3.87
,,,,
,,,,
21:00,Indiana Pacers - Chicago Bulls,111:101,1.56,2.53
03:30,Los Angeles Lakers - Dallas Mavericks,89:101,1.57,2.51
02:00,Phoenix Suns - Toronto Raptors,99:91,4.45,1.23
02:00,Utah Jazz - Philadelphia 76ers,100:83,1.05,11.87
01:00,Cleveland Cavaliers - Boston Celtics,124:118,1.38,3.19
01:00,Memphis Grizzlies - Oklahoma City Thunder,114:80,1.86,2.00
00:00,Charlotte Hornets - Miami Heat,91:82,1.37,3.26
,,,,
,,,,
03:30,Golden State Warriors - Toronto Raptors,121:111,1.20,5.00
03:00,Portland Trail Blazers - Sacramento Kings,102:89,1.82,2.06
02:00,Denver Nuggets - Minnesota Timberwolves,105:103,1.56,2.54
01:30,San Antonio Spurs - Phoenix Suns,119:98,1.13,6.54
01:00,Chicago Bulls - Brooklyn Nets,101:99,1.20,4.92
01:00,New Orleans Pelicans - Los Angeles Clippers,102:98,2.05,1.83
00:30,Atlanta Hawks - New York Knicks,102:98 OT,1.49,2.75
00:30,Detroit Pistons - Milwaukee Bucks,94:119,1.64,2.36
00:00,Orlando Magic - Charlotte Hornets,101:120,2.56,1.55
00:00,Washington Wizards - Indiana Pacers,111:105,1.52,2.67
,,,,
,,,,
03:30,Los Angeles Lakers - Utah Jazz,100:102,2.80,1.47
01:30,Dallas Mavericks - Houston Rockets,107:123,2.80,1.48
00:30,Boston Celtics - Memphis Grizzlies,113:103,1.30,3.72
00:30,Miami Heat - Oklahoma City Thunder,94:106,2.62,1.53
,,,,
,,,,
03:30,Los Angeles Clippers - Denver Nuggets,102:106,2.57,1.55
03:30,Sacramento Kings - Philadelphia 76ers,102:100,1.26,4.16
03:00,Portland Trail Blazers - Toronto Raptors,91:95,4.07,1.26
01:00,Chicago Bulls - Indiana Pacers,90:85,1.77,2.12
01:00,Houston Rockets - Phoenix Suns,131:115,1.09,8.30
01:00,Minnesota Timberwolves - Atlanta Hawks,104:90,2.04,1.83
01:00,New Orleans Pelicans - Dallas Mavericks,111:104,1.54,2.59
00:30,Brooklyn Nets - Charlotte Hornets,120:118,3.30,1.36
00:30,Detroit Pistons - Cleveland Cavaliers,106:90,1.50,2.71
,,,,
,,,,
,,,,
,,,,
,,,,
,,,,
,,,,
,,,,
,,,,
,,,,
,,,,
,,,,
,,,,
,,,,
,,,,
,,,,
,,,,
,,,,
,,,,
,,,,
00:00,Orlando Magic - Memphis Grizzlies,112:102,2.37,1.64
00:00,Washington Wizards - Milwaukee Bucks,107:102,1.63,2.38
,,,,
,,,,
03:30,Los Angeles Lakers - Los Angeles Clippers,111:102,2.31,1.66
01:00,Oklahoma City Thunder - Minnesota Timberwolves,112:100,1.54,2.59
,,,,
,,,,
22:00,San Antonio Spurs - Chicago Bulls,119:100,1.23,4.52
19:30,Cleveland Cavaliers - Golden State Warriors,109:108,2.39,1.62
17:00,New York Knicks - Boston Celtics,114:119,2.20,1.72
,,,,
,,,,
03:30,Los Angeles Clippers - Dallas Mavericks,88:90,1.54,2.61
03:00,Portland Trail Blazers - San Antonio Spurs,90:110,2.12,1.77
02:00,Denver Nuggets - Atlanta Hawks,108:109,1.46,2.84
02:00,Phoenix Suns - Philadelphia 76ers,123:116,1.44,2.93
02:00,Utah Jazz - Toronto Raptors,98:104,1.94,1.92
01:00,Memphis Grizzlies - Houston Rockets,115:109,2.43,1.61
01:00,Milwaukee Bucks - Washington Wizards,123:96,1.65,2.34
01:00,Minnesota Timberwolves - Sacramento Kings,105:109,1.50,2.70
01:00,New Orleans Pelicans - Miami Heat,91:87,1.50,2.70
00:30,Boston Celtics - Oklahoma City Thunder,112:117,1.47,2.81
00:30,Cleveland Cavaliers - Brooklyn Nets,119:99,1.03,17.50
00:30,Detroit Pistons - Golden State Warriors,113:119,3.81,1.29
00:00,Charlotte Hornets - Chicago Bulls,103:91,1.54,2.61
00:00,Orlando Magic - Los Angeles Lakers,109:90,1.51,2.69
,,,,
,,,,
03:30,Los Angeles Clippers - San Antonio Spurs,106:101,2.13,1.77
01:00,Miami Heat - Los Angeles Lakers,115:107,1.41,3.04
00:30,Brooklyn Nets - Golden State Warriors,101:117,9.57,1.07
00:30,New York Knicks - Orlando Magic,106:95,1.55,2.58
00:00,Indiana Pacers - Boston Celtics,102:109,1.98,1.89
,,,,
,,,,
03:00,Portland Trail Blazers - Dallas Mavericks,95:96,1.40,3.08
02:00,Phoenix Suns - Houston Rockets,111:125,3.23,1.38
02:00,Utah Jazz - Sacramento Kings,93:94,1.29,3.86
01:00,Chicago Bulls - Washington Wizards,97:107,1.57,2.50
01:00,New Orleans Pelicans - Oklahoma City Thunder,110:121,2.12,1.77
00:30,Atlanta Hawks - Minnesota Timberwolves,84:92,1.55,2.57
00:30,Detroit Pistons - Memphis Grizzlies,86:98,1.40,3.11
00:00,Cleveland Cavaliers - Milwaukee Bucks,113:102,1.39,3.17
,,,,
,,,,
03:30,Golden State Warriors - Utah Jazz,104:74,1.10,7.80
03:30,Los Angeles Clippers - Denver Nuggets,119:102,1.28,3.91
03:30,Sacramento Kings - Portland Trail Blazers,126:121,1.96,1.90
01:00,Houston Rockets - San Antonio Spurs,100:102,1.87,1.99
01:00,Memphis Grizzlies - Boston Celtics,109:112 OT,2.18,1.73
01:00,Milwaukee Bucks - Cleveland Cavaliers,108:114 OT,2.38,1.63
00:30,Miami Heat - Orlando Magic,130:136 OT,1.60,2.45
00:30,New York Knicks - Indiana Pacers,118:111,1.54,2.59
00:30,Toronto Raptors - Brooklyn Nets,116:104,1.04,13.71
00:00,Charlotte Hornets - Los Angeles Lakers,117:113,1.24,4.34
00:00,Philadelphia 76ers - New Orleans Pelicans,93:108,2.40,1.62
,,,,
,,,,
02:00,Denver Nuggets - Dallas Mavericks,117:107,1.28,3.96
01:00,Chicago Bulls - Detroit Pistons,113:82,1.72,2.21
01:00,Minnesota Timberwolves - Phoenix Suns,115:108,1.40,3.09
01:00,Oklahoma City Thunder - Atlanta Hawks,108:110,1.66,2.32
00:00,Indiana Pacers - Washington Wizards,107:105,1.46,2.84
,,,,
,,,,
,,,,
,,,,
,,,,
,,,,
,,,,
,,,,
,,,,
,,,,
,,,,
,,,,
,,,,
,,,,
,,,,
,,,,
,,,,
,,,,
,,,,
,,,,
00:00,San Antonio Spurs - New Orleans Pelicans,113:100,1.12,7.23
,,,,
,,,,
23:00,Memphis Grizzlies - Utah Jazz,73:82,2.05,1.82
23:00,Miami Heat - Boston Celtics,95:105,2.58,1.54
23:00,Orlando Magic - Toronto Raptors,79:109,3.02,1.42
23:00,Philadelphia 76ers - Brooklyn Nets,108:107,1.86,2.01
21:00,Dallas Mavericks - Sacramento Kings,99:79,1.92,1.95
20:30,Washington Wizards - Los Angeles Clippers,117:110,2.89,1.45
03:30,Golden State Warriors - Portland Trail Blazers,135:90,1.06,10.47
02:00,Denver Nuggets - New York Knicks,127:114,1.57,2.49
01:00,Minnesota Timberwolves - Houston Rockets,109:111 OT,2.27,1.68
00:30,Atlanta Hawks - Charlotte Hornets,99:107,1.71,2.22
00:30,Cleveland Cavaliers - Los Angeles Lakers,119:108,1.04,14.13
00:00,Detroit Pistons - Indiana Pacers,90:105,1.51,2.69
,,,,
,,,,
22:00,Oklahoma City Thunder - Phoenix Suns,114:101,1.39,3.18
03:30,Utah Jazz - Dallas Mavericks,103:100,1.14,6.28
01:00,Chicago Bulls - Milwaukee Bucks,69:95,1.45,2.90
01:00,Houston Rockets - New Orleans Pelicans,122:100,1.11,7.54
01:00,Memphis Grizzlies - Sacramento Kings,92:96,1.47,2.81
01:00,Miami Heat - Los Angeles Clippers,98:102,3.78,1.29
01:00,Philadelphia 76ers - Los Angeles Lakers,89:100,1.92,1.94
00:30,Boston Celtics - Charlotte Hornets,96:88,1.37,3.24
00:30,Toronto Raptors - Atlanta Hawks,121:125,1.34,3.41
00:00,Orlando Magic - Brooklyn Nets,118:111,1.34,3.42
00:00,Washington Wizards - Detroit Pistons,122:108,2.04,1.83
,,,,
,,,,
03:30,Golden State Warriors - New York Knicks,103:90,1.04,14.50
02:00,Denver Nuggets - Portland Trail Blazers,132:120,1.68,2.27
02:00,Phoenix Suns - San Antonio Spurs,92:107,3.86,1.29
01:00,Milwaukee Bucks - Chicago Bulls,108:97,1.92,1.94
01:00,New Orleans Pelicans - Indiana Pacers,102:95,1.72,2.20
,,,,
,,,,
02:30,San Antonio Spurs - Boston Celtics,108:101,1.38,3.22
02:00,Utah Jazz - Oklahoma City Thunder,109:89,1.31,3.69
01:30,Dallas Mavericks - Detroit Pistons,85:95,2.93,1.44
01:00,Houston Rockets - Sacramento Kings,132:98,1.08,9.06
01:00,Memphis Grizzlies - Cleveland Cavaliers,93:85,1.34,3.44
00:30,Brooklyn Nets - Los Angeles Lakers,107:97,2.01,1.85
00:00,Miami Heat - Indiana Pacers,95:89,1.99,1.88
00:00,Orlando Magic - Los Angeles Clippers,108:113,4.39,1.24
00:00,Philadelphia 76ers - Toronto Raptors,114:123,4.08,1.26
00:00,Washington Wizards - Charlotte Hornets,109:106,2.11,1.78
,,,,
,,,,
03:30,Portland Trail Blazers - Oklahoma City Thunder,114:95,1.75,2.16
02:00,Phoenix Suns - New York Knicks,113:111 OT,2.14,1.76
01:00,Chicago Bulls - Minnesota Timberwolves,94:99,1.43,2.96
01:00,New Orleans Pelicans - Golden State Warriors,109:113,5.86,1.15
00:30,Atlanta Hawks - Orlando Magic,120:131,1.26,4.13
00:00,Cleveland Cavaliers - Memphis Grizzlies,103:86,1.07,9.94
,,,,
,,,,
03:30,Los Angeles Clippers - Portland Trail Blazers,121:120,1.19,5.20
03:30,Sacramento Kings - Los Angeles Lakers,116:92,1.26,4.11
01:30,Dallas Mavericks - Denver Nuggets,112:92,2.23,1.71
01:00,Houston Rockets - Brooklyn Nets,122:118,1.09,8.49
00:30,Toronto Raptors - Milwaukee Bucks,122:100,1.26,4.10
,,,,
,,,,
,,,,
,,,,
,,,,
,,,,
,,,,
,,,,
,,,,
,,,,
,,,,
,,,,
,,,,
,,,,
,,,,
,,,,
,,,,
,,,,
,,,,
,,,,
00:30,Miami Heat - Washington Wizards,112:101,2.03,1.84
00:00,Indiana Pacers - Charlotte Hornets,110:94,2.02,1.85
,,,,
,,,,
02:30,Los Angeles Lakers - New York Knicks,112:118,2.19,1.73
01:30,Phoenix Suns - New Orleans Pelicans,119:120 OT,1.77,2.13
00:00,Minnesota Timberwolves - Golden State Warriors,108:116,5.23,1.18
00:00,Oklahoma City Thunder - Boston Celtics,99:96,1.65,2.35
,,,,
,,,,
23:00,Detroit Pistons - Philadelphia 76ers,79:97,1.10,8.12
03:30,Los Angeles Clippers - New Orleans Pelicans,133:105,1.07,10.38
02:00,Utah Jazz - Sacramento Kings,104:84,1.43,2.99
01:30,San Antonio Spurs - Brooklyn Nets,130:101,1.05,13.16
01:00,Chicago Bulls - Miami Heat,105:100,1.21,4.84
01:00,Houston Rockets - Dallas Mavericks,109:87,1.09,8.31
01:00,Memphis Grizzlies - Golden State Warriors,110:89,8.55,1.09
00:30,Cleveland Cavaliers - Charlotte Hornets,116:105,1.30,3.72
00:00,Indiana Pacers - Portland Trail Blazers,118:111,2.00,1.87
00:00,Orlando Magic - Denver Nuggets,113:121,2.08,1.80
00:00,Washington Wizards - Milwaukee Bucks,110:105,1.55,2.57
,,,,
,,,,
03:30,Los Angeles Lakers - Phoenix Suns,115:119,1.82,2.06
03:30,Sacramento Kings - New York Knicks,100:103,1.44,2.92
01:30,Dallas Mavericks - Indiana Pacers,111:103,2.44,1.60
01:00,Milwaukee Bucks - Atlanta Hawks,110:114,1.65,2.33
01:00,Minnesota Timberwolves - Detroit Pistons,90:117,2.41,1.62
01:00,Oklahoma City Thunder - Houston Rockets,99:102,2.06,1.81
00:30,Boston Celtics - Toronto Raptors,94:101,1.74,2.17
00:30,Cleveland Cavaliers - Miami Heat,114:84,1.11,7.37
00:00,Charlotte Hornets - Orlando Magic,109:88,1.32,3.59
,,,,
,,,,
02:30,Chicago Bulls - San Antonio Spurs,95:91,2.39,1.62
02:00,Utah Jazz - Golden State Warriors,99:106,6.71,1.12
01:00,Memphis Grizzlies - Portland Trail Blazers,88:86,2.39,1.64
01:00,New Orleans Pelicans - Philadelphia 76ers,88:99,1.37,3.24
00:00,Toronto Raptors - Minnesota Timberwolves,124:110,1.19,4.93
00:00,Washington Wizards - Denver Nuggets,92:85,1.45,2.91
,,,,
,,,,
03:30,Los Angeles Clippers - Golden State Warriors,98:115,2.50,1.58
02:00,Phoenix Suns - Indiana Pacers,94:109,2.53,1.57
01:30,Dallas Mavericks - Sacramento Kings,89:120,2.36,1.64
01:00,Houston Rockets - Los Angeles Lakers,134:95,1.06,10.43
01:00,Milwaukee Bucks - Portland Trail Blazers,115:107,1.81,2.06
01:00,New York Knicks - Cleveland Cavaliers,94:126,4.16,1.25
00:30,Atlanta Hawks - Miami Heat,103:95,1.22,4.64
00:30,Brooklyn Nets - Denver Nuggets,116:111,2.62,1.53
00:00,Charlotte Hornets - Detroit Pistons,87:77,1.44,2.92
00:00,Orlando Magic - Boston Celtics,87:117,2.04,1.83
,,,,
,,,,
02:00,Utah Jazz - Phoenix Suns,112:105,1.34,3.43
01:00,Memphis Grizzlies - Philadelphia 76ers,96:91,1.32,3.59
01:00,Minnesota Timberwolves - San Antonio Spurs,91:105,2.50,1.57
00:30,Detroit Pistons - Chicago Bulls,102:91,1.42,3.00
00:30,Miami Heat - New York Knicks,103:114,1.85,2.01
00:00,Washington Wizards - Orlando Magic,116:124,1.68,2.28
,,,,
,,,,
03:30,Golden State Warriors - Indiana Pacers,142:106,1.06,10.87
03:30,Los Angeles Lakers - Utah Jazz,101:107,2.61,1.53
,,,,
,,,,
,,,,
,,,,
,,,,
,,,,
,,,,
,,,,
,,,,
,,,,
,,,,
,,,,
,,,,
,,,,
,,,,
,,,,
,,,,
,,,,
,,,,
,,,,
01:30,Dallas Mavericks - Charlotte Hornets,101:109,2.41,1.62
01:00,Chicago Bulls - Portland Trail Blazers,110:112,1.60,2.44
01:00,Houston Rockets - Boston Celtics,107:106,1.45,2.87
01:00,Milwaukee Bucks - San Antonio Spurs,96:97,3.12,1.40
01:00,New Orleans Pelicans - Memphis Grizzlies,108:110 OT,1.55,2.58
00:30,Atlanta Hawks - Oklahoma City Thunder,99:102,1.57,2.51
00:30,Brooklyn Nets - Washington Wizards,113:118,3.23,1.38
00:30,Toronto Raptors - Cleveland Cavaliers,112:116,1.80,2.08
00:00,Philadelphia 76ers - Denver Nuggets,98:106,2.58,1.55
,,,,
,,,,
02:30,Los Angeles Clippers - Indiana Pacers,102:111,1.14,6.37
00:30,New York Knicks - Sacramento Kings,106:98,1.83,2.05
00:00,Oklahoma City Thunder - New Orleans Pelicans,101:92,1.39,3.16
,,,,
,,,,
23:00,Detroit Pistons - Orlando Magic,92:98,1.31,3.64
03:30,Golden State Warriors - Phoenix Suns,138:109,1.03,17.80
03:00,Portland Trail Blazers - Miami Heat,99:92,1.43,2.98
02:00,Utah Jazz - Denver Nuggets,105:98,1.33,3.49
01:30,Dallas Mavericks - Chicago Bulls,107:82,2.38,1.63
01:00,Memphis Grizzlies - Los Angeles Lakers,103:100,1.73,2.20
00:30,Philadelphia 76ers - Boston Celtics,106:107,5.18,1.19
00:30,Toronto Raptors - Atlanta Hawks,128:84,1.26,4.16
00:00,Charlotte Hornets - Minnesota Timberwolves,120:125 OT,1.42,3.02
,,,,
,,,,
22:00,Milwaukee Bucks - Brooklyn Nets,112:103,1.20,5.03
03:30,Denver Nuggets - Houston Rockets,110:128,1.63,2.37
01:30,San Antonio Spurs - Washington Wizards,107:105,1.22,4.65
01:00,Atlanta Hawks - Detroit Pistons,85:121,1.80,2.07
01:00,Chicago Bulls - Cleveland Cavaliers,111:105,2.09,1.80
01:00,New Orleans Pelicans - Los Angeles Clippers,96:114,2.57,1.55
00:30,Boston Celtics - Sacramento Kings,97:92,1.40,3.12
00:30,New York Knicks - Minnesota Timberwolves,118:114,2.19,1.73
00:30,Toronto Raptors - Los Angeles Lakers,113:80,1.19,5.14
00:00,Philadelphia 76ers - Orlando Magic,88:105,1.81,2.06
,,,,
,,,,
03:30,Golden State Warriors - Houston Rockets,127:132 OT,1.15,6.10
02:00,Utah Jazz - Miami Heat,110:111,1.31,3.64
01:00,Cleveland Cavaliers - Los Angeles Clippers,94:113,1.59,2.46
01:00,Memphis Grizzlies - Orlando Magic,95:94,2.52,1.57
00:30,Brooklyn Nets - Milwaukee Bucks,93:111,2.89,1.45
00:00,Charlotte Hornets - Dallas Mavericks,97:87,1.12,7.12
,,,,
,,,,
03:00,Portland Trail Blazers - Indiana Pacers,131:109,1.31,3.66
02:00,Denver Nuggets - Miami Heat,98:106,1.39,3.14
02:00,Phoenix Suns - Atlanta Hawks,109:107,2.58,1.55
01:30,Dallas Mavericks - San Antonio Spurs,87:94,4.42,1.23
01:00,Chicago Bulls - Los Angeles Lakers,90:96,1.17,5.47
01:00,Minnesota Timberwolves - New York Knicks,104:106,1.58,2.49
01:00,Oklahoma City Thunder - Washington Wizards,126:115 OT,1.46,2.87
00:30,Boston Celtics - Detroit Pistons,114:121,1.36,3.31
00:30,Toronto Raptors - Memphis Grizzlies,120:105,1.07,9.67
,,,,
,,,,
02:00,Utah Jazz - Houston Rockets,120:101,2.00,1.86
01:30,San Antonio Spurs - Orlando Magic,83:95,1.09,8.62
01:00,Milwaukee Bucks - Cleveland Cavaliers,118:101,3.64,1.31
01:00,New Orleans Pelicans - Los Angeles Lakers,105:88,1.45,2.88
,,,,
,,,,
,,,,
,,,,
,,,,
,,,,
,,,,
,,,,
,,,,
,,,,
,,,,
,,,,
,,,,
,,,,
,,,,
,,,,
,,,,
,,,,
,,,,
,,,,
00:30,Brooklyn Nets - Los Angeles Clippers,127:122 OT,6.23,1.14
00:00,Charlotte Hornets - Detroit Pistons,89:112,1.62,2.40
,,,,
,,,,
03:30,Golden State Warriors - Atlanta Hawks,105:100,1.06,11.44
01:00,Memphis Grizzlies - Charlotte Hornets,85:104,2.02,1.85
01:00,Minnesota Timberwolves - Utah Jazz,103:112,2.27,1.68
00:30,Miami Heat - Boston Celtics,104:112,2.53,1.56
00:30,New York Knicks - Oklahoma City Thunder,103:112,1.95,1.91
00:30,Toronto Raptors - Philadelphia 76ers,122:95,1.04,13.68
00:00,Washington Wizards - Sacramento Kings,101:95 OT,1.51,2.68
,,,,
,,,,
02:30,Los Angeles Lakers - Atlanta Hawks,109:94,2.76,1.49
02:00,Portland Trail Blazers - Houston Rockets,114:130,2.11,1.78
00:00,Dallas Mavericks - New Orleans Pelicans,91:81,2.82,1.47
,,,,
,,,,
23:00,Brooklyn Nets - Sacramento Kings,105:122,2.73,1.50
23:00,Indiana Pacers - Los Angeles Clippers,91:70,6.64,1.13
23:00,Orlando Magic - Milwaukee Bucks,96:104,1.85,2.02
20:30,Phoenix Suns - Denver Nuggets,114:120,1.77,2.12
18:00,Philadelphia 76ers - Cleveland Cavaliers,108:112,6.83,1.12
03:30,Golden State Warriors - Minnesota Timberwolves,115:102,1.08,8.86
01:00,Miami Heat - Memphis Grizzlies,107:110,2.04,1.83
01:00,Oklahoma City Thunder - Detroit Pistons,106:88,1.54,2.60
00:00,Charlotte Hornets - New York Knicks,107:102,1.43,2.95
00:00,Washington Wizards - San Antonio Spurs,100:112,3.23,1.38
,,,,
,,,,
03:30,Los Angeles Lakers - Golden State Warriors,85:109,10.65,1.06
03:30,Sacramento Kings - Houston Rockets,104:117,2.39,1.62
03:00,Portland Trail Blazers - New Orleans Pelicans,119:104,1.55,2.57
02:00,Denver Nuggets - Oklahoma City Thunder,129:132 OT,2.24,1.70
02:00,Phoenix Suns - Minnesota Timberwolves,85:98,2.08,1.80
01:00,Indiana Pacers - Brooklyn Nets,118:97,1.42,3.01
01:00,Memphis Grizzlies - Miami Heat,81:90,1.48,2.78
01:00,Milwaukee Bucks - Toronto Raptors,99:105,2.43,1.61
01:00,Utah Jazz - Atlanta Hawks,95:68,1.62,2.40
00:30,Cleveland Cavaliers - Dallas Mavericks,128:90,1.06,10.82
00:30,Detroit Pistons - Los Angeles Clippers,108:97,3.39,1.35
00:30,New York Knicks - Charlotte Hornets,113:111 OT,2.09,1.80
00:30,Philadelphia 76ers - Chicago Bulls,89:105,4.67,1.21
00:00,Orlando Magic - Washington Wizards,91:94,2.12,1.78
,,,,
,,,,
18:00,Boston Celtics - San Antonio Spurs,103:109,2.33,1.65
,,,,
,,,,
03:30,Golden State Warriors - Los Angeles Lakers,149:106,1.02,20.97
03:30,Sacramento Kings - Oklahoma City Thunder,116:101,1.76,2.14
02:30,New Orleans Pelicans - Minnesota Timberwolves,117:96,2.18,1.74
02:00,Utah Jazz - Denver Nuggets,108:83,1.29,3.82
01:30,Dallas Mavericks - Los Angeles Clippers,104:124,5.88,1.15
01:00,Houston Rockets - Toronto Raptors,102:115,1.56,2.53
00:30,Brooklyn Nets - Boston Celtics,92:111,3.66,1.31
00:30,Detroit Pistons - Miami Heat,107:84,1.51,2.70
00:00,Charlotte Hornets - San Antonio Spurs,114:119,2.90,1.44
00:00,Cleveland Cavaliers - Portland Trail Blazers,137:125,1.11,7.55
00:00,Indiana Pacers - Atlanta Hawks,85:96,1.99,1.87
00:00,Orlando Magic - Phoenix Suns,87:92,1.54,2.58
00:00,Philadelphia 76ers - Memphis Grizzlies,99:104 OT,3.01,1.42
,,,,
,,,,
,,,,
,,,,
,,,,
,,,,
,,,,
,,,,
,,,,
,,,,
,,,,
,,,,
,,,,
,,,,
,,,,
,,,,
,,,,
,,,,
,,,,
,,,,
03:30,Los Angeles Lakers - Oklahoma City Thunder,111:109,2.35,1.64
02:00,Denver Nuggets - Chicago Bulls,110:107,2.08,1.80
00:30,Atlanta Hawks - New Orleans Pelicans,94:112,1.26,4.17
00:30,New York Knicks - Portland Trail Blazers,107:103,1.81,2.07
,,,,
,,,,
03:30,Los Angeles Clippers - Toronto Raptors,123:115,1.22,4.68
01:30,San Antonio Spurs - Dallas Mavericks,96:91,1.04,13.55
01:00,Milwaukee Bucks - Orlando Magic,93:89,1.37,3.28
01:00,Minnesota Timberwolves - Boston Celtics,93:99,2.06,1.81
00:30,Detroit Pistons - Houston Rockets,96:99,2.16,1.75
00:00,Charlotte Hornets - Memphis Grizzlies,90:105,1.48,2.79
00:00,Indiana Pacers - Golden State Warriors,83:120,12.82,1.05
00:00,Philadelphia 76ers - Miami Heat,101:94,2.62,1.53
00:00,Washington Wizards - Phoenix Suns,106:101,1.29,3.80
,,,,
,,,,
02:30,Los Angeles Lakers - Chicago Bulls,110:118,1.76,2.15
02:00,Denver Nuggets - Utah Jazz,105:91,1.60,2.44
02:00,Sacramento Kings - Toronto Raptors,102:99,2.41,1.62
00:00,Oklahoma City Thunder - Indiana Pacers,111:115 OT,1.20,4.96
,,,,
,,,,
20:30,Brooklyn Nets - Portland Trail Blazers,109:129,2.61,1.53
17:00,New York Knicks - Atlanta Hawks,104:94,2.60,1.54
03:30,Los Angeles Clippers - Chicago Bulls,102:95,1.29,3.87
01:30,Milwaukee Bucks - Golden State Warriors,121:124,4.66,1.22
01:00,Memphis Grizzlies - Minnesota Timberwolves,93:71,2.01,1.86
00:30,Philadelphia 76ers - Phoenix Suns,120:105,2.09,1.80
00:00,Detroit Pistons - Boston Celtics,92:94,1.77,2.11
00:00,New Orleans Pelicans - Charlotte Hornets,121:116 OT,2.13,1.77
00:00,Orlando Magic - Dallas Mavericks,95:87,1.27,3.96
00:00,Washington Wizards - Miami Heat,111:114,1.50,2.71
,,,,
,,,,
22:00,Houston Rockets - Utah Jazz,111:102,1.34,3.43
03:30,Los Angeles Lakers - San Antonio Spurs,107:116,3.93,1.28
03:30,Sacramento Kings - Los Angeles Clippers,115:121,4.28,1.25
02:00,Denver Nuggets - Toronto Raptors,111:113 OT,2.44,1.60
01:30,Dallas Mavericks - Memphis Grizzlies,64:80,2.43,1.60
01:00,Boston Celtics - Golden State Warriors,88:104,4.36,1.24
01:00,New Orleans Pelicans - Portland Trail Blazers,113:101,1.96,1.90
01:00,Oklahoma City Thunder - Brooklyn Nets,124:105,1.19,5.06
00:30,Cleveland Cavaliers - Detroit Pistons,104:81,1.23,4.46
00:00,Charlotte Hornets - Atlanta Hawks,100:96,1.73,2.19
00:00,Indiana Pacers - Phoenix Suns,96:116,1.54,2.61
,,,,
,,,,
03:30,Utah Jazz - Chicago Bulls,77:85,1.68,2.28
01:00,Houston Rockets - Portland Trail Blazers,126:109,1.47,2.80
01:00,Minnesota Timberwolves - Philadelphia 76ers,110:86,1.12,6.80
00:30,Miami Heat - Milwaukee Bucks,96:73,1.60,2.45
00:00,Washington Wizards - New York Knicks,119:112,1.49,2.74
,,,,
,,,,
03:30,Los Angeles Clippers - Memphis Grizzlies,107:111,1.09,8.78
03:30,Sacramento Kings - San Antonio Spurs,105:110,2.91,1.44
02:00,Denver Nuggets - Phoenix Suns,120:104,1.52,2.65
01:00,Oklahoma City Thunder - Houston Rockets,105:103,1.73,2.19
01:00,Toronto Raptors - Golden State Warriors,121:127,3.05,1.41
00:30,Boston Celtics - Dallas Mavericks,90:83,1.39,3.16
00:30,New York Knicks - Detroit Pistons,105:102,1.80,2.08
,,,,
,,,,
,,,,
,,,,
,,,,
,,,,
,,,,
,,,,
,,,,
,,,,
,,,,
,,,,
,,,,
,,,,
,,,,
,,,,
,,,,
,,,,
,,,,
,,,,
00:30,Atlanta Hawks - Milwaukee Bucks,107:100,1.47,2.82
00:00,Indiana Pacers - Cleveland Cavaliers,103:93,1.72,2.22
00:00,Orlando Magic - New Orleans Pelicans,89:82,1.31,3.68
00:00,Philadelphia 76ers - Washington Wizards,109:102,3.34,1.36
,,,,
,,,,
03:30,Los Angeles Lakers - Brooklyn Nets,125:118,1.33,3.55
03:00,Portland Trail Blazers - Chicago Bulls,88:113,1.56,2.54
01:00,Minnesota Timberwolves - Charlotte Hornets,108:115,1.96,1.91
00:30,Miami Heat - Atlanta Hawks,90:93,3.38,1.35
00:00,Cleveland Cavaliers - Toronto Raptors,121:117,1.41,3.08
,,,,
,,,,
03:30,Los Angeles Clippers - Brooklyn Nets,127:95,1.03,17.38
02:00,Utah Jazz - Memphis Grizzlies,96:102,1.39,3.16
01:30,San Antonio Spurs - Miami Heat,94:90,1.13,6.75
01:00,Houston Rockets - Philadelphia 76ers,115:88,1.12,6.90
01:00,New Orleans Pelicans - Boston Celtics,106:105,2.43,1.61
00:30,Detroit Pistons - Oklahoma City Thunder,104:88,2.00,1.86
00:30,New York Knicks - Dallas Mavericks,93:77,1.57,2.51
00:00,Indiana Pacers - Orlando Magic,88:69,1.28,3.88
,,,,
,,,,
02:00,Portland Trail Blazers - Denver Nuggets,112:105,1.31,3.70
01:00,Golden State Warriors - Phoenix Suns,133:120,1.02,18.85
00:00,Minnesota Timberwolves - Los Angeles Lakers,125:99,1.83,2.06
00:00,Oklahoma City Thunder - Orlando Magic,117:119,1.20,4.98
,,,,
,,,,
20:30,Cleveland Cavaliers - Charlotte Hornets,100:93,1.30,3.76
02:00,Denver Nuggets - Detroit Pistons,95:106,1.48,2.77
02:00,Phoenix Suns - Brooklyn Nets,104:122,1.50,2.72
01:30,Milwaukee Bucks - Memphis Grizzlies,106:96,1.64,2.35
01:00,Chicago Bulls - Washington Wizards,106:95,1.17,5.39
01:00,Houston Rockets - San Antonio Spurs,100:106,2.07,1.81
01:00,Miami Heat - Utah Jazz,91:102,2.05,1.82
01:00,Minnesota Timberwolves - Los Angeles Clippers,105:119,2.83,1.47
00:30,Atlanta Hawks - Philadelphia 76ers,117:96,1.04,14.30
00:30,Toronto Raptors - New York Knicks,118:107,1.31,3.65
00:00,Indiana Pacers - Boston Celtics,99:105,2.10,1.79
00:00,New Orleans Pelicans - Los Angeles Lakers,99:126,1.92,1.93
,,,,
,,,,
03:00,Portland Trail Blazers - Sacramento Kings,122:120 OT,1.31,3.66
01:30,San Antonio Spurs - Detroit Pistons,96:86,1.22,4.69
01:00,Oklahoma City Thunder - Los Angeles Clippers,108:110,2.70,1.51
00:30,Boston Celtics - New York Knicks,115:87,1.49,2.74
00:00,Charlotte Hornets - Toronto Raptors,111:113,1.94,1.92
00:00,Orlando Magic - Utah Jazz,74:87,2.82,1.47
00:00,Philadelphia 76ers - Indiana Pacers,109:105 OT,2.79,1.48
00:00,Washington Wizards - Cleveland Cavaliers,94:105,3.82,1.29
,,,,
,,,,
03:30,Sacramento Kings - Los Angeles Lakers,91:101,1.47,2.82
02:00,Denver Nuggets - Golden State Warriors,101:125,3.36,1.35
01:00,Miami Heat - Chicago Bulls,95:98,1.88,1.98
01:00,Milwaukee Bucks - New Orleans Pelicans,106:112,1.45,2.89
,,,,
,,,,
03:30,Golden State Warriors - Dallas Mavericks,116:95,1.02,18.28
03:30,Los Angeles Clippers - Portland Trail Blazers,111:80,1.15,6.11
02:30,San Antonio Spurs - Houston Rockets,99:101,1.24,4.41
02:00,Phoenix Suns - Detroit Pistons,107:100,2.57,1.55
01:00,Oklahoma City Thunder - Toronto Raptors,102:112,1.58,2.49
,,,,
,,,,
,,,,
,,,,
,,,,
,,,,
,,,,
,,,,
,,,,
,,,,
,,,,
,,,,
,,,,
,,,,
,,,,
,,,,
,,,,
,,,,
,,,,
,,,,
00:30,Atlanta Hawks - Chicago Bulls,115:107,1.63,2.39
00:00,Charlotte Hornets - Utah Jazz,104:98,1.67,2.29
00:00,Indiana Pacers - Philadelphia 76ers,122:115 OT,1.11,7.37
00:00,New York Knicks - Brooklyn Nets,110:96,1.28,3.94
00:00,Orlando Magic - Minnesota Timberwolves,107:123,1.71,2.21
00:00,Washington Wizards - Boston Celtics,118:93,1.83,2.05
,,,,
,,,,
03:30,Los Angeles Lakers - Dallas Mavericks,97:109,1.55,2.57
03:30,Sacramento Kings - New Orleans Pelicans,102:94,1.37,3.28
03:00,Portland Trail Blazers - Phoenix Suns,124:121,1.25,4.27
01:00,Memphis Grizzlies - Denver Nuggets,108:107,1.58,2.49
00:30,Brooklyn Nets - Minnesota Timberwolves,119:110,2.58,1.55
00:00,Cleveland Cavaliers - Atlanta Hawks,106:110,1.27,3.99
,,,,
,,,,
03:30,Golden State Warriors - New Orleans Pelicans,116:106,1.02,19.92
03:30,Los Angeles Clippers - Detroit Pistons,114:82,1.24,4.38
01:00,Chicago Bulls - Orlando Magic,112:80,1.35,3.43
01:00,Oklahoma City Thunder - Miami Heat,97:85,1.43,2.94
00:00,Charlotte Hornets - Indiana Pacers,122:100,1.67,2.29
00:00,Philadelphia 76ers - Utah Jazz,84:109,2.90,1.45
00:00,Washington Wizards - Houston Rockets,106:114,1.87,2.00
,,,,
,,,,
02:30,Los Angeles Lakers - Phoenix Suns,119:108,1.57,2.51
00:30,Boston Celtics - Denver Nuggets,107:123,1.33,3.52
00:00,Dallas Mavericks - Milwaukee Bucks,86:75 OT,1.70,2.24
,,,,
,,,,
23:00,Toronto Raptors - Sacramento Kings,91:96,1.27,4.21
20:30,Memphis Grizzlies - Portland Trail Blazers,94:100,1.93,1.93
17:00,New York Knicks - Utah Jazz,109:114,2.22,1.71
00:30,San Antonio Spurs - Los Angeles Clippers,92:116,1.49,2.75
00:00,Milwaukee Bucks - Sacramento Kings,117:91,1.61,2.42
,,,,
,,,,
23:30,Atlanta Hawks - Houston Rockets,112:97,1.64,2.36
23:00,Detroit Pistons - Denver Nuggets,103:86,1.51,2.69
23:00,Indiana Pacers - Chicago Bulls,111:94,1.62,2.40
23:00,Orlando Magic - Washington Wizards,88:86,1.39,3.17
23:00,Philadelphia 76ers - Cleveland Cavaliers,101:102,9.27,1.08
22:00,Oklahoma City Thunder - Minnesota Timberwolves,112:92,1.50,2.71
02:30,Los Angeles Lakers - Golden State Warriors,117:97,6.86,1.12
01:00,Utah Jazz - San Antonio Spurs,86:100,2.49,1.58
00:30,Dallas Mavericks - Portland Trail Blazers,95:105,2.31,1.66
00:00,Chicago Bulls - New York Knicks,104:117,1.30,3.71
00:00,Memphis Grizzlies - Los Angeles Clippers,88:99,3.00,1.42
00:00,New Orleans Pelicans - Phoenix Suns,111:112 OT,1.69,2.26
,,,,
,,,,
23:30,Brooklyn Nets - Charlotte Hornets,95:99,3.35,1.36
23:30,Toronto Raptors - Miami Heat,96:87,1.32,3.58
23:00,Washington Wizards - Atlanta Hawks,95:92,1.87,1.99
02:30,Golden State Warriors - Oklahoma City Thunder,122:96,1.10,7.77
00:00,Cleveland Cavaliers - Boston Celtics,128:122,1.14,6.24
00:00,Milwaukee Bucks - Indiana Pacers,125:107,2.26,1.69
00:00,Minnesota Timberwolves - Denver Nuggets,99:102,1.63,2.39
,,,,
,,,,
23:00,Orlando Magic - Sacramento Kings,102:94,1.95,1.91
02:30,Los Angeles Clippers - Oklahoma City Thunder,83:85,1.32,3.59
02:00,Phoenix Suns - Portland Trail Blazers,118:115 OT,2.30,1.67
01:00,Utah Jazz - Dallas Mavericks,97:81,1.62,2.39
,,,,
,,,,
,,,,
,,,,
,,,,
,,,,
,,,,
,,,,
,,,,
,,,,
,,,,
,,,,
,,,,
,,,,
,,,,
,,,,
,,,,
,,,,
,,,,
,,,,
00:00,Boston Celtics - Chicago Bulls,107:100,1.64,2.35
00:00,Memphis Grizzlies - New Orleans Pelicans,89:83 OT,1.42,3.01
,,,,
,,,,
23:30,Atlanta Hawks - Los Angeles Lakers,116:123,1.11,7.37
23:30,Brooklyn Nets - Detroit Pistons,109:101,2.52,1.57
23:30,New York Knicks - Houston Rockets,99:118,1.90,1.96
23:00,Charlotte Hornets - Philadelphia 76ers,109:93,1.08,9.38
23:00,Washington Wizards - Toronto Raptors,103:113,1.95,1.91
02:00,Portland Trail Blazers - Golden State Warriors,104:127,2.82,1.47
00:30,San Antonio Spurs - Utah Jazz,91:106,1.18,5.35
00:00,Minnesota Timberwolves - Memphis Grizzlies,116:80,1.35,3.47
00:00,New Orleans Pelicans - Milwaukee Bucks,113:117,1.60,2.45
,,,,
,,,,
23:30,Detroit Pistons - New York Knicks,102:89,1.56,2.53
23:30,Miami Heat - Sacramento Kings,108:96 OT,1.60,2.45
23:00,Indiana Pacers - Los Angeles Lakers,115:108,1.22,4.59
23:00,Philadelphia 76ers - Orlando Magic,101:103,2.81,1.47
22:00,Cleveland Cavaliers - Houston Rockets,128:120,1.18,5.21
02:30,Los Angeles Clippers - Phoenix Suns,116:98,1.09,8.25
,,,,
,,,,
23:30,Atlanta Hawks - Sacramento Kings,106:95,1.33,3.51
23:30,Brooklyn Nets - Chicago Bulls,88:118,3.40,1.35
23:30,Toronto Raptors - Denver Nuggets,105:102,1.34,3.45
00:00,Houston Rockets - Dallas Mavericks,93:92,1.52,2.67
00:00,Memphis Grizzlies - Washington Wizards,112:103 OT,2.38,1.63
,,,,
,,,,
23:00,Oklahoma City Thunder - Los Angeles Lakers,113:96,1.23,4.45
22:00,Detroit Pistons - Milwaukee Bucks,98:83,1.28,3.93
22:00,Miami Heat - San Antonio Spurs,99:106,3.21,1.38
22:00,Phoenix Suns - Golden State Warriors,100:106,7.29,1.11
20:30,Los Angeles Clippers - Utah Jazz,88:75,1.31,3.68
02:30,Sacramento Kings - Minnesota Timberwolves,106:103,1.91,1.96
02:00,Chicago Bulls - Indiana Pacers,118:101,1.50,2.40
02:00,Denver Nuggets - Portland Trail Blazers,113:115 OT,2.01,1.86
02:00,Milwaukee Bucks - Brooklyn Nets,110:108,1.27,3.73
02:00,San Antonio Spurs - New Orleans Pelicans,98:79,1.04,11.55
00:30,Cleveland Cavaliers - Orlando Magic,105:99,1.12,6.78
00:30,New York Knicks - Memphis Grizzlies,111:104,1.69,2.26
00:00,Charlotte Hornets - Boston Celtics,98:104,2.28,1.68
,,,,
,,,,
17:30,Philadelphia 76ers - Atlanta Hawks,72:104,4.01,1.27
02:30,New Orleans Pelicans - Golden State Warriors,114:122,7.23,1.11
02:00,Utah Jazz - Los Angeles Lakers,96:89,1.21,4.71
01:30,Dallas Mavericks - Houston Rockets,98:106,2.12,1.77
01:00,Miami Heat - Charlotte Hornets,91:97,1.98,1.88
01:00,Oklahoma City Thunder - Phoenix Suns,113:110 OT,1.26,4.14
00:30,Brooklyn Nets - Indiana Pacers,103:94,3.00,1.42
00:30,Detroit Pistons - Orlando Magic,108:82,1.56,2.53
00:00,Toronto Raptors - Cleveland Cavaliers,91:94,2.29,1.67
,,,,
,,,,
03:30,Portland Trail Blazers - Los Angeles Clippers,106:114,2.21,1.71
03:30,Sacramento Kings - San Antonio Spurs,94:102,4.03,1.27
01:00,Chicago Bulls - Boston Celtics,105:99,1.87,1.99
00:30,Atlanta Hawks - Washington Wizards,114:99,1.55,2.56
,,,,
,,,,
03:30,Los Angeles Lakers - Houston Rockets,120:114,3.05,1.41
03:00,Phoenix Suns - Sacramento Kings,94:113,1.65,2.33
,,,,
,,,,
,,,,
,,,,
,,,,
,,,,
,,,,
,,,,
,,,,
,,,,
,,,,
,,,,
,,,,
,,,,
,,,,
,,,,
,,,,
,,,,
,,,,
,,,,
01:00,Memphis Grizzlies - Minnesota Timberwolves,102:98,2.04,1.83
01:00,Milwaukee Bucks - Charlotte Hornets,96:107,2.04,1.83
01:00,New Orleans Pelicans - Denver Nuggets,102:107,1.83,2.05
01:00,Philadelphia 76ers - Oklahoma City Thunder,97:103,4.89,1.20
00:30,Boston Celtics - Brooklyn Nets,122:117,1.11,7.44
00:30,Toronto Raptors - Detroit Pistons,109:91,1.34,3.43
00:00,Indiana Pacers - Dallas Mavericks,130:121 OT,1.43,2.96
00:00,Orlando Magic - Miami Heat,96:108,1.65,2.34
,,,,
,,,,
03:30,Golden State Warriors - San Antonio Spurs,100:129,1.24,4.27
03:00,Portland Trail Blazers - Utah Jazz,113:104,1.39,3.11
00:30,Cleveland Cavaliers - New York Knicks,117:88,1.19,4.98
,,,,
,,,,
03:30,Golden State Warriors - Portland Trail Blazers,107:96,1.16,5.35
03:00,Los Angeles Lakers - Phoenix Suns,94:98,1.69,2.20
02:00,Denver Nuggets - Dallas Mavericks,101:75,1.56,2.47
01:30,San Antonio Spurs - Houston Rockets,114:99,1.32,3.43
01:00,Minnesota Timberwolves - Charlotte Hornets,109:74,1.33,3.37
00:30,Miami Heat - Philadelphia 76ers,110:113,1.29,3.68
00:00,Washington Wizards - Toronto Raptors,119:82,1.70,2.17
,,,,
,,,,
01:00,Chicago Bulls - Atlanta Hawks,81:97,1.63,2.29
00:30,Brooklyn Nets - New York Knicks,111:116,2.21,1.67
00:00,Charlotte Hornets - Miami Heat,96:88,1.44,2.80
00:00,Orlando Magic - New Orleans Pelicans,114:111 OT,1.48,2.66
,,,,
,,,,
03:00,Los Angeles Lakers - Golden State Warriors,112:123,4.57,1.20
02:00,Utah Jazz - Portland Trail Blazers,84:88,1.45,2.78
01:30,Dallas Mavericks - Houston Rockets,91:106,1.61,2.34
01:00,Milwaukee Bucks - Indiana Pacers,111:103,2.42,1.57
01:00,Minnesota Timberwolves - Memphis Grizzlies,101:94,1.45,2.75
00:30,Boston Celtics - New York Knicks,96:121,1.47,2.69
00:30,Detroit Pistons - Toronto Raptors,92:103,1.64,2.28
,,,,
,,,,
03:00,Sacramento Kings - Los Angeles Clippers,89:92,2.32,1.62
01:00,Oklahoma City Thunder - Denver Nuggets,97:87,1.43,2.86
00:30,Atlanta Hawks - New Orleans Pelicans,96:89,1.33,3.31
00:30,Miami Heat - Orlando Magic,107:77,1.62,2.31
00:00,Cleveland Cavaliers - Washington Wizards,91:96,1.40,2.96
,,,,
,,,,
02:00,Utah Jazz - Los Angeles Clippers,104:78,1.51,2.58
01:00,Chicago Bulls - Charlotte Hornets,104:108 OT,1.44,2.80
00:30,Boston Celtics - Brooklyn Nets,120:99,1.30,3.51
00:30,Detroit Pistons - Milwaukee Bucks,102:78,1.41,2.92
,,,,
,,,,
02:00,Portland Trail Blazers - Denver Nuggets,97:106,1.42,2.88
00:00,Oklahoma City Thunder - Minnesota Timberwolves,112:94,1.38,3.08
,,,,
,,,,
23:00,Orlando Magic - Atlanta Hawks,98:105,1.44,2.81
03:00,Los Angeles Lakers - Golden State Warriors,107:112,2.73,1.46
01:30,Milwaukee Bucks - Chicago Bulls,86:107,1.44,2.80
01:00,Houston Rockets - Memphis Grizzlies,125:134 OT,1.52,2.56
00:30,Miami Heat - Minnesota Timberwolves,96:101,2.98,1.40
00:30,New York Knicks - Boston Celtics,107:119,2.23,1.67
00:00,Philadelphia 76ers - Detroit Pistons,76:97,2.41,1.58
00:00,Sacramento Kings - Washington Wizards,124:119,1.94,1.86
,,,,
,,,,
03:00,Phoenix Suns - Dallas Mavericks,112:107,2.08,1.76
02:00,Denver Nuggets - Golden State Warriors,128:129 OT,3.64,1.29
,,,,
,,,,
,,,,
,,,,
,,,,
,,,,
,,,,
,,,,
,,,,
,,,,
,,,,
,,,,
,,,,
,,,,
,,,,
,,,,
,,,,
,,,,
,,,,
,,,,
01:30,San Antonio Spurs - Miami Heat,100:108,1.38,3.10
01:00,Chicago Bulls - Cleveland Cavaliers,118:108,1.33,3.37
00:00,Orlando Magic - Indiana Pacers,114:106,2.38,1.60
,,,,
,,,,
03:30,Los Angeles Clippers - Portland Trail Blazers,109:108,1.47,2.69
03:30,Los Angeles Lakers - Sacramento Kings,104:116,1.49,2.64
01:00,Cleveland Cavaliers - Toronto Raptors,94:119,1.50,2.62
01:00,Oklahoma City Thunder - Memphis Grizzlies,94:110,1.60,2.37
00:30,Atlanta Hawks - Detroit Pistons,94:99,1.43,2.85
00:30,Brooklyn Nets - Boston Celtics,97:100,2.70,1.47
00:00,Washington Wizards - Philadelphia 76ers,100:79,1.44,2.79
,,,,
,,,,
02:00,Utah Jazz - Phoenix Suns,110:111,1.48,2.66
01:00,Minnesota Timberwolves - Denver Nuggets,105:88,1.47,2.71
00:30,Indiana Pacers - Milwaukee Bucks,101:83,1.43,2.86
00:00,Orlando Magic - San Antonio Spurs,89:95,2.23,1.66
,,,,
,,,,
12:30,New Orleans Pelicans - Houston Rockets,104:116,3.01,1.39
03:30,Los Angeles Lakers - Portland Trail Blazers,106:109 OT,2.53,1.53
01:30,Dallas Mavericks - Oklahoma City Thunder,114:109,1.65,2.25
01:00,Memphis Grizzlies - Philadelphia 76ers,121:91,1.44,2.78
00:30,Miami Heat - Brooklyn Nets,121:100,1.42,2.88
,,,,
,,,,
03:30,Los Angeles Clippers - Utah Jazz,94:96,1.35,3.25
00:30,Atlanta Hawks - Cleveland Cavaliers,99:93,1.30,3.55
00:30,Detroit Pistons - San Antonio Spurs,81:86,1.67,2.20
00:30,New York Knicks - Washington Wizards,90:88,1.56,2.46
00:00,Charlotte Hornets - Minnesota Timberwolves,98:86,1.54,2.50
,,,,
,,,,
02:30,Los Angeles Lakers - Denver Nuggets,124:115,1.52,2.54
,,,,
,,,,
12:30,Houston Rockets - New Orleans Pelicans,123:117,1.47,2.70
01:30,Miami Heat - Minnesota Timberwolves,100:109,2.07,1.77
01:30,Milwaukee Bucks - Dallas Mavericks,88:74,1.57,2.46
01:30,San Antonio Spurs - Atlanta Hawks,102:91,1.51,2.62
01:00,Chicago Bulls - Indiana Pacers,121:105,1.51,2.61
00:30,Cleveland Cavaliers - Philadelphia 76ers,108:105,1.36,3.22
00:30,New York Knicks - Brooklyn Nets,116:98,1.48,2.70
,,,,
,,,,
20:30,Boston Celtics - Charlotte Hornets,104:86,1.59,2.39
03:30,Los Angeles Lakers - Denver Nuggets,97:101,1.61,2.34
03:00,Portland Trail Blazers - Phoenix Suns,115:110,1.49,2.65
,,,,
,,,,
03:30,Golden State Warriors - Sacramento Kings,105:96,1.14,5.82
01:00,Memphis Grizzlies - Atlanta Hawks,83:104,1.57,2.44
00:30,Brooklyn Nets - Detroit Pistons,101:94,2.49,1.55
00:30,Charlotte Hornets - Boston Celtics,92:107,2.58,1.52
00:00,Indiana Pacers - Chicago Bulls,115:108,1.55,2.50
00:00,Philadelphia 76ers - Washington Wizards,119:125 OT,2.33,1.62
,,,,
,,,,
03:30,Los Angeles Clippers - Toronto Raptors,104:98,1.67,2.22
03:00,Phoenix Suns - Utah Jazz,99:104,2.35,1.60
00:00,Cleveland Cavaliers - Orlando Magic,117:102,1.48,2.66
,,,,
,,,,
03:30,Golden State Warriors - Los Angeles Clippers,120:75,1.40,2.94
03:00,Los Angeles Lakers - Sacramento Kings,103:84,1.68,2.20
01:00,Houston Rockets - New York Knicks,130:103,1.58,2.39
01:00,New Orleans Pelicans - Indiana Pacers,96:113,1.48,2.67
00:00,Philadelphia 76ers - Boston Celtics,92:89,3.12,1.37
00:00,Washington Wizards - Miami Heat,95:106,1.50,2.58
,,,,
,,,,
,,,,
,,,,
,,,,
,,,,
,,,,
,,,,
,,,,
,,,,
,,,,
,,,,
,,,,
,,,,
,,,,
,,,,
,,,,
,,,,
,,,,
,,,,
03:00,Phoenix Suns - San Antonio Spurs,91:86,1.42,2.89
03:00,Portland Trail Blazers - Utah Jazz,98:89,1.59,2.37
02:00,Toronto Raptors - Denver Nuggets,106:108,1.58,2.40
01:30,Dallas Mavericks - Charlotte Hornets,95:88,1.57,2.42
01:00,Chicago Bulls - Milwaukee Bucks,91:93,1.53,2.52
01:00,Memphis Grizzlies - Orlando Magic,102:97,1.49,2.63
,,,,
,,,,
01:00,New Orleans Pelicans - Dallas Mavericks,116:102,1.54,2.51
00:30,Toronto Raptors - Golden State Warriors,97:93,2.53,1.54
,,,,
,,,,
,,,,
,,,,
,,,,
,,,,
,,,,
,,,,
,,,,
,,,,
,,,,
,,,,
,,,,
,,,,
,,,,
,,,,
,,,,
,,,,
,,,,
,,,,
03:00,Phoenix Suns - San Antonio Spurs,91:86,1.42,2.89
03:00,Portland Trail Blazers - Utah Jazz,98:89,1.59,2.37
02:00,Toronto Raptors - Denver Nuggets,106:108,1.58,2.40
01:30,Dallas Mavericks - Charlotte Hornets,95:88,1.57,2.42
01:00,Chicago Bulls - Milwaukee Bucks,91:93,1.53,2.52
01:00,Memphis Grizzlies - Orlando Magic,102:97,1.49,2.63
,,,,
,,,,
01:00,New Orleans Pelicans - Dallas Mavericks,116:102,1.54,2.51
00:30,Toronto Raptors - Golden State Warriors,97:93,2.53,1.54
,,,,
,,,,
,,,,
,,,,
,,,,
,,,,
,,,,
,,,,
,,,,
,,,,
,,,,
,,,,
,,,,
,,,,
,,,,
,,,,
,,,,